Extracting source...
./ntfs-3g_ntfsprogs-2012.1.15/
./ntfs-3g_ntfsprogs-2012.1.15/m4/
./ntfs-3g_ntfsprogs-2012.1.15/m4/.keep
./ntfs-3g_ntfsprogs-2012.1.15/aclocal.m4
./ntfs-3g_ntfsprogs-2012.1.15/install-sh
./ntfs-3g_ntfsprogs-2012.1.15/TODO.ntfsprogs
./ntfs-3g_ntfsprogs-2012.1.15/NEWS
./ntfs-3g_ntfsprogs-2012.1.15/INSTALL
./ntfs-3g_ntfsprogs-2012.1.15/compile
./ntfs-3g_ntfsprogs-2012.1.15/README
./ntfs-3g_ntfsprogs-2012.1.15/configure
./ntfs-3g_ntfsprogs-2012.1.15/AUTHORS
./ntfs-3g_ntfsprogs-2012.1.15/ltmain.sh
./ntfs-3g_ntfsprogs-2012.1.15/autogen.sh
./ntfs-3g_ntfsprogs-2012.1.15/CREDITS
./ntfs-3g_ntfsprogs-2012.1.15/ChangeLog
./ntfs-3g_ntfsprogs-2012.1.15/missing
./ntfs-3g_ntfsprogs-2012.1.15/configure.ac
./ntfs-3g_ntfsprogs-2012.1.15/depcomp
./ntfs-3g_ntfsprogs-2012.1.15/include/
./ntfs-3g_ntfsprogs-2012.1.15/include/ntfs-3g/
./ntfs-3g_ntfsprogs-2012.1.15/include/ntfs-3g/volume.h
./ntfs-3g_ntfsprogs-2012.1.15/include/ntfs-3g/attrlist.h
./ntfs-3g_ntfsprogs-2012.1.15/include/ntfs-3g/efs.h
./ntfs-3g_ntfsprogs-2012.1.15/include/ntfs-3g/layout.h
./ntfs-3g_ntfsprogs-2012.1.15/include/ntfs-3g/dir.h
./ntfs-3g_ntfsprogs-2012.1.15/include/ntfs-3g/bitmap.h
./ntfs-3g_ntfsprogs-2012.1.15/include/ntfs-3g/compress.h
./ntfs-3g_ntfsprogs-2012.1.15/include/ntfs-3g/misc.h
./ntfs-3g_ntfsprogs-2012.1.15/include/ntfs-3g/unistr.h
./ntfs-3g_ntfsprogs-2012.1.15/include/ntfs-3g/object_id.h
./ntfs-3g_ntfsprogs-2012.1.15/include/ntfs-3g/types.h
./ntfs-3g_ntfsprogs-2012.1.15/include/ntfs-3g/collate.h
./ntfs-3g_ntfsprogs-2012.1.15/include/ntfs-3g/cache.h
./ntfs-3g_ntfsprogs-2012.1.15/include/ntfs-3g/mst.h
./ntfs-3g_ntfsprogs-2012.1.15/include/ntfs-3g/security.h
./ntfs-3g_ntfsprogs-2012.1.15/include/ntfs-3g/support.h
./ntfs-3g_ntfsprogs-2012.1.15/include/ntfs-3g/realpath.h
./ntfs-3g_ntfsprogs-2012.1.15/include/ntfs-3g/logfile.h
./ntfs-3g_ntfsprogs-2012.1.15/include/ntfs-3g/index.h
./ntfs-3g_ntfsprogs-2012.1.15/include/ntfs-3g/lcnalloc.h
./ntfs-3g_ntfsprogs-2012.1.15/include/ntfs-3g/xattrs.h
./ntfs-3g_ntfsprogs-2012.1.15/include/ntfs-3g/endians.h
./ntfs-3g_ntfsprogs-2012.1.15/include/ntfs-3g/reparse.h
./ntfs-3g_ntfsprogs-2012.1.15/include/ntfs-3g/runlist.h
./ntfs-3g_ntfsprogs-2012.1.15/include/ntfs-3g/debug.h
./ntfs-3g_ntfsprogs-2012.1.15/include/ntfs-3g/param.h
./ntfs-3g_ntfsprogs-2012.1.15/include/ntfs-3g/logging.h
./ntfs-3g_ntfsprogs-2012.1.15/include/ntfs-3g/compat.h
./ntfs-3g_ntfsprogs-2012.1.15/include/ntfs-3g/inode.h
./ntfs-3g_ntfsprogs-2012.1.15/include/ntfs-3g/device_io.h
./ntfs-3g_ntfsprogs-2012.1.15/include/ntfs-3g/Makefile.am
./ntfs-3g_ntfsprogs-2012.1.15/include/ntfs-3g/Makefile.in
./ntfs-3g_ntfsprogs-2012.1.15/include/ntfs-3g/device.h
./ntfs-3g_ntfsprogs-2012.1.15/include/ntfs-3g/acls.h
./ntfs-3g_ntfsprogs-2012.1.15/include/ntfs-3g/mft.h
./ntfs-3g_ntfsprogs-2012.1.15/include/ntfs-3g/ntfstime.h
./ntfs-3g_ntfsprogs-2012.1.15/include/ntfs-3g/bootsect.h
./ntfs-3g_ntfsprogs-2012.1.15/include/ntfs-3g/attrib.h
./ntfs-3g_ntfsprogs-2012.1.15/include/Makefile.am
./ntfs-3g_ntfsprogs-2012.1.15/include/Makefile.in
./ntfs-3g_ntfsprogs-2012.1.15/include/fuse-lite/
./ntfs-3g_ntfsprogs-2012.1.15/include/fuse-lite/fuse_kernel.h
./ntfs-3g_ntfsprogs-2012.1.15/include/fuse-lite/fuse_common.h
./ntfs-3g_ntfsprogs-2012.1.15/include/fuse-lite/fuse_lowlevel_compat.h
./ntfs-3g_ntfsprogs-2012.1.15/include/fuse-lite/fuse_lowlevel.h
./ntfs-3g_ntfsprogs-2012.1.15/include/fuse-lite/Makefile.am
./ntfs-3g_ntfsprogs-2012.1.15/include/fuse-lite/Makefile.in
./ntfs-3g_ntfsprogs-2012.1.15/include/fuse-lite/fuse_opt.h
./ntfs-3g_ntfsprogs-2012.1.15/include/fuse-lite/fuse.h
./ntfs-3g_ntfsprogs-2012.1.15/config.sub
./ntfs-3g_ntfsprogs-2012.1.15/libfuse-lite/
./ntfs-3g_ntfsprogs-2012.1.15/libfuse-lite/helper.c
./ntfs-3g_ntfsprogs-2012.1.15/libfuse-lite/mount.c
./ntfs-3g_ntfsprogs-2012.1.15/libfuse-lite/fuse.c
./ntfs-3g_ntfsprogs-2012.1.15/libfuse-lite/mount_util.h
./ntfs-3g_ntfsprogs-2012.1.15/libfuse-lite/fuse_loop.c
./ntfs-3g_ntfsprogs-2012.1.15/libfuse-lite/fuse_signals.c
./ntfs-3g_ntfsprogs-2012.1.15/libfuse-lite/fusermount.c
./ntfs-3g_ntfsprogs-2012.1.15/libfuse-lite/fuse_kern_chan.c
./ntfs-3g_ntfsprogs-2012.1.15/libfuse-lite/fuse_opt.c
./ntfs-3g_ntfsprogs-2012.1.15/libfuse-lite/mount_util.c
./ntfs-3g_ntfsprogs-2012.1.15/libfuse-lite/fuse_session.c
./ntfs-3g_ntfsprogs-2012.1.15/libfuse-lite/Makefile.am
./ntfs-3g_ntfsprogs-2012.1.15/libfuse-lite/Makefile.in
./ntfs-3g_ntfsprogs-2012.1.15/libfuse-lite/fuse_misc.h
./ntfs-3g_ntfsprogs-2012.1.15/libfuse-lite/fuse_i.h
./ntfs-3g_ntfsprogs-2012.1.15/libfuse-lite/fuse_lowlevel.c
./ntfs-3g_ntfsprogs-2012.1.15/libntfs-3g/
./ntfs-3g_ntfsprogs-2012.1.15/libntfs-3g/efs.c
./ntfs-3g_ntfsprogs-2012.1.15/libntfs-3g/lcnalloc.c
./ntfs-3g_ntfsprogs-2012.1.15/libntfs-3g/unix_io.c
./ntfs-3g_ntfsprogs-2012.1.15/libntfs-3g/attrlist.c
./ntfs-3g_ntfsprogs-2012.1.15/libntfs-3g/security.c
./ntfs-3g_ntfsprogs-2012.1.15/libntfs-3g/device.c
./ntfs-3g_ntfsprogs-2012.1.15/libntfs-3g/bootsect.c
./ntfs-3g_ntfsprogs-2012.1.15/libntfs-3g/cache.c
./ntfs-3g_ntfsprogs-2012.1.15/libntfs-3g/debug.c
./ntfs-3g_ntfsprogs-2012.1.15/libntfs-3g/inode.c
./ntfs-3g_ntfsprogs-2012.1.15/libntfs-3g/compat.c
./ntfs-3g_ntfsprogs-2012.1.15/libntfs-3g/acls.c
./ntfs-3g_ntfsprogs-2012.1.15/libntfs-3g/index.c
./ntfs-3g_ntfsprogs-2012.1.15/libntfs-3g/logging.c
./ntfs-3g_ntfsprogs-2012.1.15/libntfs-3g/mst.c
./ntfs-3g_ntfsprogs-2012.1.15/libntfs-3g/runlist.c
./ntfs-3g_ntfsprogs-2012.1.15/libntfs-3g/attrib.c
./ntfs-3g_ntfsprogs-2012.1.15/libntfs-3g/libntfs-3g.pc.in
./ntfs-3g_ntfsprogs-2012.1.15/libntfs-3g/misc.c
./ntfs-3g_ntfsprogs-2012.1.15/libntfs-3g/compress.c
./ntfs-3g_ntfsprogs-2012.1.15/libntfs-3g/collate.c
./ntfs-3g_ntfsprogs-2012.1.15/libntfs-3g/libntfs-3g.script.so.in
./ntfs-3g_ntfsprogs-2012.1.15/libntfs-3g/reparse.c
./ntfs-3g_ntfsprogs-2012.1.15/libntfs-3g/volume.c
./ntfs-3g_ntfsprogs-2012.1.15/libntfs-3g/object_id.c
./ntfs-3g_ntfsprogs-2012.1.15/libntfs-3g/dir.c
./ntfs-3g_ntfsprogs-2012.1.15/libntfs-3g/mft.c
./ntfs-3g_ntfsprogs-2012.1.15/libntfs-3g/Makefile.am
./ntfs-3g_ntfsprogs-2012.1.15/libntfs-3g/Makefile.in
./ntfs-3g_ntfsprogs-2012.1.15/libntfs-3g/xattrs.c
./ntfs-3g_ntfsprogs-2012.1.15/libntfs-3g/logfile.c
./ntfs-3g_ntfsprogs-2012.1.15/libntfs-3g/unistr.c
./ntfs-3g_ntfsprogs-2012.1.15/libntfs-3g/win32_io.c
./ntfs-3g_ntfsprogs-2012.1.15/libntfs-3g/realpath.c
./ntfs-3g_ntfsprogs-2012.1.15/libntfs-3g/bitmap.c
./ntfs-3g_ntfsprogs-2012.1.15/Makefile.am
./ntfs-3g_ntfsprogs-2012.1.15/Makefile.in
./ntfs-3g_ntfsprogs-2012.1.15/config.guess
./ntfs-3g_ntfsprogs-2012.1.15/config.h.in
./ntfs-3g_ntfsprogs-2012.1.15/src/
./ntfs-3g_ntfsprogs-2012.1.15/src/ntfs-3g_common.h
./ntfs-3g_ntfsprogs-2012.1.15/src/usermap.c
./ntfs-3g_ntfsprogs-2012.1.15/src/secaudit.c
./ntfs-3g_ntfsprogs-2012.1.15/src/ntfs-3g.probe.c
./ntfs-3g_ntfsprogs-2012.1.15/src/ntfs-3g.usermap.8.in
./ntfs-3g_ntfsprogs-2012.1.15/src/ntfs-3g.probe.8.in
./ntfs-3g_ntfsprogs-2012.1.15/src/lowntfs-3g.c
./ntfs-3g_ntfsprogs-2012.1.15/src/ntfs-3g.c
./ntfs-3g_ntfsprogs-2012.1.15/src/secaudit.h
./ntfs-3g_ntfsprogs-2012.1.15/src/ntfs-3g_common.c
./ntfs-3g_ntfsprogs-2012.1.15/src/ntfs-3g.secaudit.8.in
./ntfs-3g_ntfsprogs-2012.1.15/src/ntfs-3g.8.in
./ntfs-3g_ntfsprogs-2012.1.15/src/Makefile.am
./ntfs-3g_ntfsprogs-2012.1.15/src/Makefile.in
./ntfs-3g_ntfsprogs-2012.1.15/COPYING.LIB
./ntfs-3g_ntfsprogs-2012.1.15/COPYING
./ntfs-3g_ntfsprogs-2012.1.15/ntfsprogs/
./ntfs-3g_ntfsprogs-2012.1.15/ntfsprogs/ntfstruncate.c
./ntfs-3g_ntfsprogs-2012.1.15/ntfsprogs/utils.h
./ntfs-3g_ntfsprogs-2012.1.15/ntfsprogs/ntfscp.c
./ntfs-3g_ntfsprogs-2012.1.15/ntfsprogs/mkntfs.8.in
./ntfs-3g_ntfsprogs-2012.1.15/ntfsprogs/ntfswipe.c
./ntfs-3g_ntfsprogs-2012.1.15/ntfsprogs/ntfsfix.c
./ntfs-3g_ntfsprogs-2012.1.15/ntfsprogs/ntfscp.8.in
./ntfs-3g_ntfsprogs-2012.1.15/ntfsprogs/ntfsundelete.h
./ntfs-3g_ntfsprogs-2012.1.15/ntfsprogs/ntfsck.c
./ntfs-3g_ntfsprogs-2012.1.15/ntfsprogs/boot.c
./ntfs-3g_ntfsprogs-2012.1.15/ntfsprogs/ntfscat.c
./ntfs-3g_ntfsprogs-2012.1.15/ntfsprogs/ntfsinfo.8.in
./ntfs-3g_ntfsprogs-2012.1.15/ntfsprogs/ntfsinfo.c
./ntfs-3g_ntfsprogs-2012.1.15/ntfsprogs/ntfsprogs.8.in
./ntfs-3g_ntfsprogs-2012.1.15/ntfsprogs/ntfscluster.8.in
./ntfs-3g_ntfsprogs-2012.1.15/ntfsprogs/cluster.c
./ntfs-3g_ntfsprogs-2012.1.15/ntfsprogs/ntfsmftalloc.c
./ntfs-3g_ntfsprogs-2012.1.15/ntfsprogs/ntfsclone.8.in
./ntfs-3g_ntfsprogs-2012.1.15/ntfsprogs/ntfslabel.c
./ntfs-3g_ntfsprogs-2012.1.15/ntfsprogs/cluster.h
./ntfs-3g_ntfsprogs-2012.1.15/ntfsprogs/mkntfs.c
./ntfs-3g_ntfsprogs-2012.1.15/ntfsprogs/ntfswipe.h
./ntfs-3g_ntfsprogs-2012.1.15/ntfsprogs/ntfsls.c
./ntfs-3g_ntfsprogs-2012.1.15/ntfsprogs/boot.h
./ntfs-3g_ntfsprogs-2012.1.15/ntfsprogs/sd.c
./ntfs-3g_ntfsprogs-2012.1.15/ntfsprogs/ntfscat.8.in
./ntfs-3g_ntfsprogs-2012.1.15/ntfsprogs/ntfsresize.8.in
./ntfs-3g_ntfsprogs-2012.1.15/ntfsprogs/ntfscat.h
./ntfs-3g_ntfsprogs-2012.1.15/ntfsprogs/ntfsundelete.c
./ntfs-3g_ntfsprogs-2012.1.15/ntfsprogs/ntfsls.8.in
./ntfs-3g_ntfsprogs-2012.1.15/ntfsprogs/ntfsmove.c
./ntfs-3g_ntfsprogs-2012.1.15/ntfsprogs/ntfsresize.c
./ntfs-3g_ntfsprogs-2012.1.15/ntfsprogs/ntfscmp.c
./ntfs-3g_ntfsprogs-2012.1.15/ntfsprogs/ntfsdump_logfile.c
./ntfs-3g_ntfsprogs-2012.1.15/ntfsprogs/ntfsundelete.8.in
./ntfs-3g_ntfsprogs-2012.1.15/ntfsprogs/ntfsclone.c
./ntfs-3g_ntfsprogs-2012.1.15/ntfsprogs/ntfscluster.h
./ntfs-3g_ntfsprogs-2012.1.15/ntfsprogs/Makefile.am
./ntfs-3g_ntfsprogs-2012.1.15/ntfsprogs/Makefile.in
./ntfs-3g_ntfsprogs-2012.1.15/ntfsprogs/ntfsmove.h
./ntfs-3g_ntfsprogs-2012.1.15/ntfsprogs/ntfslabel.8.in
./ntfs-3g_ntfsprogs-2012.1.15/ntfsprogs/attrdef.c
./ntfs-3g_ntfsprogs-2012.1.15/ntfsprogs/ntfsdecrypt.c
./ntfs-3g_ntfsprogs-2012.1.15/ntfsprogs/ntfscluster.c
./ntfs-3g_ntfsprogs-2012.1.15/ntfsprogs/sd.h
./ntfs-3g_ntfsprogs-2012.1.15/ntfsprogs/utils.c
./ntfs-3g_ntfsprogs-2012.1.15/ntfsprogs/ntfscmp.8.in
./ntfs-3g_ntfsprogs-2012.1.15/ntfsprogs/attrdef.h
./ntfs-3g_ntfsprogs-2012.1.15/ntfsprogs/ntfsfix.8.in
./ntfs-3g_ntfsprogs-2012.1.15/ntfsprogs/list.h
Setting permissions...
Configuring source...
checking build system type... i486-slackware-linux-gnu
checking host system type... i486-slackware-linux-gnu
checking target system type... i486-slackware-linux-gnu
checking for a BSD-compatible install... /bin/ginstall -c
checking whether build environment is sane... yes
checking for a thread-safe mkdir -p... /bin/mkdir -p
checking for gawk... gawk
checking whether make sets $(MAKE)... yes
checking whether to enable maintainer-specific portions of Makefiles... no
checking for gcc... gcc
checking for C compiler default output file name... a.out
checking whether the C compiler works... yes
checking whether we are cross compiling... no
checking for suffix of executables... 
checking for suffix of object files... o
checking whether we are using the GNU C compiler... yes
checking whether gcc accepts -g... yes
checking for gcc option to accept ISO C89... none needed
checking for style of include used by make... GNU
checking dependency style of gcc... gcc3
checking whether ln -s works... yes
checking whether gcc and cc understand -c and -o together... yes
checking for a sed that does not truncate output... /bin/sed
checking for grep that handles long lines and -e... /bin/grep
checking for egrep... /bin/grep -E
checking for ld used by gcc... /usr/i486-slackware-linux/bin/ld
checking if the linker (/usr/i486-slackware-linux/bin/ld) is GNU ld... yes
checking for /usr/i486-slackware-linux/bin/ld option to reload object files... -r
checking for BSD-compatible nm... /usr/bin/nm -B
checking how to recognize dependent libraries... pass_all
checking how to run the C preprocessor... gcc -E
checking for ANSI C header files... yes
checking for sys/types.h... yes
checking for sys/stat.h... yes
checking for stdlib.h... yes
checking for string.h... yes
checking for memory.h... yes
checking for strings.h... yes
checking for inttypes.h... yes
checking for stdint.h... yes
checking for unistd.h... yes
checking dlfcn.h usability... yes
checking dlfcn.h presence... yes
checking for dlfcn.h... yes
checking for g++... g++
checking whether we are using the GNU C++ compiler... yes
checking whether g++ accepts -g... yes
checking dependency style of g++... gcc3
checking how to run the C++ preprocessor... g++ -E
checking for g77... no
checking for xlf... no
checking for f77... no
checking for frt... no
checking for pgf77... no
checking for cf77... no
checking for fort77... no
checking for fl32... no
checking for af77... no
checking for xlf90... no
checking for f90... no
checking for pgf90... no
checking for pghpf... no
checking for epcf90... no
checking for gfortran... no
checking for g95... no
checking for xlf95... no
checking for f95... no
checking for fort... no
checking for ifort... no
checking for ifc... no
checking for efc... no
checking for pgf95... no
checking for lf95... no
checking for ftn... no
checking whether we are using the GNU Fortran 77 compiler... no
checking whether  accepts -g... no
checking the maximum length of command line arguments... 1572864
checking command to parse /usr/bin/nm -B output from gcc object... ok
checking for objdir... .libs
checking for ar... ar
checking for ranlib... ranlib
checking for strip... strip
checking if gcc supports -fno-rtti -fno-exceptions... no
checking for gcc option to produce PIC... -fPIC
checking if gcc PIC flag -fPIC works... yes
checking if gcc static flag -static works... yes
checking if gcc supports -c -o file.o... yes
checking whether the gcc linker (/usr/i486-slackware-linux/bin/ld) supports shared libraries... yes
checking whether -lc should be explicitly linked in... no
checking dynamic linker characteristics... GNU/Linux ld.so
checking how to hardcode library paths into programs... immediate
checking whether stripping libraries is possible... yes
checking if libtool supports shared libraries... yes
checking whether to build shared libraries... yes
checking whether to build static libraries... no
configure: creating libtool
appending configuration tag "CXX" to libtool
checking for ld used by g++... /usr/i486-slackware-linux/bin/ld
checking if the linker (/usr/i486-slackware-linux/bin/ld) is GNU ld... yes
checking whether the g++ linker (/usr/i486-slackware-linux/bin/ld) supports shared libraries... yes
checking for g++ option to produce PIC... -fPIC
checking if g++ PIC flag -fPIC works... yes
checking if g++ static flag -static works... yes
checking if g++ supports -c -o file.o... yes
checking whether the g++ linker (/usr/i486-slackware-linux/bin/ld) supports shared libraries... yes
checking dynamic linker characteristics... GNU/Linux ld.so
(cached) (cached) checking how to hardcode library paths into programs... immediate
appending configuration tag "F77" to libtool
checking for a BSD-compatible install... /bin/ginstall -c
checking for pkg-config... /usr/bin/pkg-config
checking pkg-config is at least version 0.9.0... yes
checking for mv... /bin/mv
checking for rm... /bin/rm
checking for sed... /bin/sed
checking for ldconfig... /sbin/ldconfig
checking Windows OS... no
checking fuse compatibility... external
checking for FUSE_MODULE... yes
checking uuid/uuid.h usability... yes
checking uuid/uuid.h presence... yes
checking for uuid/uuid.h... yes
checking for uuid_generate in -luuid... yes
checking for ANSI C header files... (cached) yes
checking ctype.h usability... yes
checking ctype.h presence... yes
checking for ctype.h... yes
checking fcntl.h usability... yes
checking fcntl.h presence... yes
checking for fcntl.h... yes
checking libgen.h usability... yes
checking libgen.h presence... yes
checking for libgen.h... yes
checking libintl.h usability... yes
checking libintl.h presence... yes
checking for libintl.h... yes
checking limits.h usability... yes
checking limits.h presence... yes
checking for limits.h... yes
checking locale.h usability... yes
checking locale.h presence... yes
checking for locale.h... yes
checking mntent.h usability... yes
checking mntent.h presence... yes
checking for mntent.h... yes
checking stddef.h usability... yes
checking stddef.h presence... yes
checking for stddef.h... yes
checking for stdint.h... (cached) yes
checking for stdlib.h... (cached) yes
checking stdio.h usability... yes
checking stdio.h presence... yes
checking for stdio.h... yes
checking stdarg.h usability... yes
checking stdarg.h presence... yes
checking for stdarg.h... yes
checking for string.h... (cached) yes
checking for strings.h... (cached) yes
checking errno.h usability... yes
checking errno.h presence... yes
checking for errno.h... yes
checking time.h usability... yes
checking time.h presence... yes
checking for time.h... yes
checking for unistd.h... (cached) yes
checking utime.h usability... yes
checking utime.h presence... yes
checking for utime.h... yes
checking wchar.h usability... yes
checking wchar.h presence... yes
checking for wchar.h... yes
checking getopt.h usability... yes
checking getopt.h presence... yes
checking for getopt.h... yes
checking features.h usability... yes
checking features.h presence... yes
checking for features.h... yes
checking endian.h usability... yes
checking endian.h presence... yes
checking for endian.h... yes
checking byteswap.h usability... yes
checking byteswap.h presence... yes
checking for byteswap.h... yes
checking sys/byteorder.h usability... no
checking sys/byteorder.h presence... no
checking for sys/byteorder.h... no
checking sys/disk.h usability... no
checking sys/disk.h presence... no
checking for sys/disk.h... no
checking sys/endian.h usability... no
checking sys/endian.h presence... no
checking for sys/endian.h... no
checking sys/param.h usability... yes
checking sys/param.h presence... yes
checking for sys/param.h... yes
checking sys/ioctl.h usability... yes
checking sys/ioctl.h presence... yes
checking for sys/ioctl.h... yes
checking sys/mkdev.h usability... no
checking sys/mkdev.h presence... no
checking for sys/mkdev.h... no
checking sys/mount.h usability... yes
checking sys/mount.h presence... yes
checking for sys/mount.h... yes
checking for sys/stat.h... (cached) yes
checking for sys/types.h... (cached) yes
checking sys/vfs.h usability... yes
checking sys/vfs.h presence... yes
checking for sys/vfs.h... yes
checking sys/statvfs.h usability... yes
checking sys/statvfs.h presence... yes
checking for sys/statvfs.h... yes
checking sys/sysmacros.h usability... yes
checking sys/sysmacros.h presence... yes
checking for sys/sysmacros.h... yes
checking linux/major.h usability... yes
checking linux/major.h presence... yes
checking for linux/major.h... yes
checking linux/fd.h usability... yes
checking linux/fd.h presence... yes
checking for linux/fd.h... yes
checking linux/hdreg.h usability... yes
checking linux/hdreg.h presence... yes
checking for linux/hdreg.h... yes
checking machine/endian.h usability... no
checking machine/endian.h presence... no
checking for machine/endian.h... no
checking windows.h usability... no
checking windows.h presence... no
checking for windows.h... no
checking syslog.h usability... yes
checking syslog.h presence... yes
checking for syslog.h... yes
checking pwd.h usability... yes
checking pwd.h presence... yes
checking for pwd.h... yes
checking for stdbool.h that conforms to C99... yes
checking for _Bool... yes
checking whether byte ordering is bigendian... no
checking for an ANSI C-conforming const... yes
checking for inline... inline
checking for off_t... yes
checking for size_t... yes
checking for struct stat.st_blocks... yes
checking for struct stat.st_rdev... yes
checking for struct stat.st_atim... yes
checking for struct stat.st_atimespec... no
checking for struct stat.st_atimensec... no
checking for library containing getmntent... none required
checking whether mbrtowc and mbstate_t are properly declared... yes
checking for working memcmp... yes
checking whether lstat dereferences a symlink specified with a trailing slash... yes
checking whether stat accepts an empty string... no
checking for strftime... yes
checking for utime.h... (cached) yes
checking whether utime accepts a null argument... yes
checking for vprintf... yes
checking for _doprnt... no
checking for atexit... yes
checking for basename... yes
checking for daemon... yes
checking for dup2... yes
checking for fdatasync... yes
checking for ffs... yes
checking for getopt_long... yes
checking for hasmntopt... yes
checking for mbsinit... yes
checking for memmove... yes
checking for memset... yes
checking for realpath... yes
checking for regcomp... yes
checking for setlocale... yes
checking for setxattr... yes
checking for strcasecmp... yes
checking for strchr... yes
checking for strdup... yes
checking for strerror... yes
checking for strnlen... yes
checking for strsep... yes
checking for strtol... yes
checking for strtoul... yes
checking for sysconf... yes
checking for utime... yes
checking for utimensat... yes
checking for gettimeofday... yes
checking for clock_gettime... no
checking for fork... yes
checking for special C compiler options needed for large files... no
checking for _FILE_OFFSET_BITS value needed for large files... 64
configure: creating ./config.status
config.status: creating Makefile
config.status: creating include/Makefile
config.status: creating include/fuse-lite/Makefile
config.status: creating include/ntfs-3g/Makefile
config.status: creating libfuse-lite/Makefile
config.status: creating libntfs-3g/Makefile
config.status: creating libntfs-3g/libntfs-3g.pc
config.status: creating libntfs-3g/libntfs-3g.script.so
config.status: creating ntfsprogs/Makefile
config.status: creating ntfsprogs/mkntfs.8
config.status: creating ntfsprogs/ntfscat.8
config.status: creating ntfsprogs/ntfsclone.8
config.status: creating ntfsprogs/ntfscluster.8
config.status: creating ntfsprogs/ntfscmp.8
config.status: creating ntfsprogs/ntfscp.8
config.status: creating ntfsprogs/ntfsfix.8
config.status: creating ntfsprogs/ntfsinfo.8
config.status: creating ntfsprogs/ntfslabel.8
config.status: creating ntfsprogs/ntfsls.8
config.status: creating ntfsprogs/ntfsprogs.8
config.status: creating ntfsprogs/ntfsresize.8
config.status: creating ntfsprogs/ntfsundelete.8
config.status: creating src/Makefile
config.status: creating src/ntfs-3g.8
config.status: creating src/ntfs-3g.probe.8
config.status: creating src/ntfs-3g.usermap.8
config.status: creating src/ntfs-3g.secaudit.8
config.status: creating config.h
config.status: executing depfiles commands
You can type now 'make' to build ntfs-3g.
make  all-recursive
make[1]: Entering directory `/home/ken/vectorlinux/packaging/pactions/ntfs-3g_ntfsprogs/ntfs-3g_ntfsprogs/2012.1.15/tmp/ntfs-3g_ntfsprogs-2012.1.15'
Making all in include
make[2]: Entering directory `/home/ken/vectorlinux/packaging/pactions/ntfs-3g_ntfsprogs/ntfs-3g_ntfsprogs/2012.1.15/tmp/ntfs-3g_ntfsprogs-2012.1.15/include'
Making all in ntfs-3g
make[3]: Entering directory `/home/ken/vectorlinux/packaging/pactions/ntfs-3g_ntfsprogs/ntfs-3g_ntfsprogs/2012.1.15/tmp/ntfs-3g_ntfsprogs-2012.1.15/include/ntfs-3g'
make[3]: Nothing to be done for `all'.
make[3]: Leaving directory `/home/ken/vectorlinux/packaging/pactions/ntfs-3g_ntfsprogs/ntfs-3g_ntfsprogs/2012.1.15/tmp/ntfs-3g_ntfsprogs-2012.1.15/include/ntfs-3g'
Making all in fuse-lite
make[3]: Entering directory `/home/ken/vectorlinux/packaging/pactions/ntfs-3g_ntfsprogs/ntfs-3g_ntfsprogs/2012.1.15/tmp/ntfs-3g_ntfsprogs-2012.1.15/include/fuse-lite'
make[3]: Nothing to be done for `all'.
make[3]: Leaving directory `/home/ken/vectorlinux/packaging/pactions/ntfs-3g_ntfsprogs/ntfs-3g_ntfsprogs/2012.1.15/tmp/ntfs-3g_ntfsprogs-2012.1.15/include/fuse-lite'
make[3]: Entering directory `/home/ken/vectorlinux/packaging/pactions/ntfs-3g_ntfsprogs/ntfs-3g_ntfsprogs/2012.1.15/tmp/ntfs-3g_ntfsprogs-2012.1.15/include'
make[3]: Nothing to be done for `all-am'.
make[3]: Leaving directory `/home/ken/vectorlinux/packaging/pactions/ntfs-3g_ntfsprogs/ntfs-3g_ntfsprogs/2012.1.15/tmp/ntfs-3g_ntfsprogs-2012.1.15/include'
make[2]: Leaving directory `/home/ken/vectorlinux/packaging/pactions/ntfs-3g_ntfsprogs/ntfs-3g_ntfsprogs/2012.1.15/tmp/ntfs-3g_ntfsprogs-2012.1.15/include'
Making all in libfuse-lite
make[2]: Entering directory `/home/ken/vectorlinux/packaging/pactions/ntfs-3g_ntfsprogs/ntfs-3g_ntfsprogs/2012.1.15/tmp/ntfs-3g_ntfsprogs-2012.1.15/libfuse-lite'
make[2]: Nothing to be done for `all'.
make[2]: Leaving directory `/home/ken/vectorlinux/packaging/pactions/ntfs-3g_ntfsprogs/ntfs-3g_ntfsprogs/2012.1.15/tmp/ntfs-3g_ntfsprogs-2012.1.15/libfuse-lite'
Making all in libntfs-3g
make[2]: Entering directory `/home/ken/vectorlinux/packaging/pactions/ntfs-3g_ntfsprogs/ntfs-3g_ntfsprogs/2012.1.15/tmp/ntfs-3g_ntfsprogs-2012.1.15/libntfs-3g'
/bin/sh ../libtool --tag=CC   --mode=compile gcc -DHAVE_CONFIG_H -I. -I..     -I../include/ntfs-3g -O2 -march=i586 -mtune=i686  -Wall -MT libntfs_3g_la-acls.lo -MD -MP -MF .deps/libntfs_3g_la-acls.Tpo -c -o libntfs_3g_la-acls.lo `test -f 'acls.c' || echo './'`acls.c
mkdir .libs
 gcc -DHAVE_CONFIG_H -I. -I.. -I../include/ntfs-3g -O2 -march=i586 -mtune=i686 -Wall -MT libntfs_3g_la-acls.lo -MD -MP -MF .deps/libntfs_3g_la-acls.Tpo -c acls.c  -fPIC -DPIC -o .libs/libntfs_3g_la-acls.o
mv -f .deps/libntfs_3g_la-acls.Tpo .deps/libntfs_3g_la-acls.Plo
/bin/sh ../libtool --tag=CC   --mode=compile gcc -DHAVE_CONFIG_H -I. -I..     -I../include/ntfs-3g -O2 -march=i586 -mtune=i686  -Wall -MT libntfs_3g_la-attrib.lo -MD -MP -MF .deps/libntfs_3g_la-attrib.Tpo -c -o libntfs_3g_la-attrib.lo `test -f 'attrib.c' || echo './'`attrib.c
 gcc -DHAVE_CONFIG_H -I. -I.. -I../include/ntfs-3g -O2 -march=i586 -mtune=i686 -Wall -MT libntfs_3g_la-attrib.lo -MD -MP -MF .deps/libntfs_3g_la-attrib.Tpo -c attrib.c  -fPIC -DPIC -o .libs/libntfs_3g_la-attrib.o
mv -f .deps/libntfs_3g_la-attrib.Tpo .deps/libntfs_3g_la-attrib.Plo
/bin/sh ../libtool --tag=CC   --mode=compile gcc -DHAVE_CONFIG_H -I. -I..     -I../include/ntfs-3g -O2 -march=i586 -mtune=i686  -Wall -MT libntfs_3g_la-attrlist.lo -MD -MP -MF .deps/libntfs_3g_la-attrlist.Tpo -c -o libntfs_3g_la-attrlist.lo `test -f 'attrlist.c' || echo './'`attrlist.c
 gcc -DHAVE_CONFIG_H -I. -I.. -I../include/ntfs-3g -O2 -march=i586 -mtune=i686 -Wall -MT libntfs_3g_la-attrlist.lo -MD -MP -MF .deps/libntfs_3g_la-attrlist.Tpo -c attrlist.c  -fPIC -DPIC -o .libs/libntfs_3g_la-attrlist.o
mv -f .deps/libntfs_3g_la-attrlist.Tpo .deps/libntfs_3g_la-attrlist.Plo
/bin/sh ../libtool --tag=CC   --mode=compile gcc -DHAVE_CONFIG_H -I. -I..     -I../include/ntfs-3g -O2 -march=i586 -mtune=i686  -Wall -MT libntfs_3g_la-bitmap.lo -MD -MP -MF .deps/libntfs_3g_la-bitmap.Tpo -c -o libntfs_3g_la-bitmap.lo `test -f 'bitmap.c' || echo './'`bitmap.c
 gcc -DHAVE_CONFIG_H -I. -I.. -I../include/ntfs-3g -O2 -march=i586 -mtune=i686 -Wall -MT libntfs_3g_la-bitmap.lo -MD -MP -MF .deps/libntfs_3g_la-bitmap.Tpo -c bitmap.c  -fPIC -DPIC -o .libs/libntfs_3g_la-bitmap.o
mv -f .deps/libntfs_3g_la-bitmap.Tpo .deps/libntfs_3g_la-bitmap.Plo
/bin/sh ../libtool --tag=CC   --mode=compile gcc -DHAVE_CONFIG_H -I. -I..     -I../include/ntfs-3g -O2 -march=i586 -mtune=i686  -Wall -MT libntfs_3g_la-bootsect.lo -MD -MP -MF .deps/libntfs_3g_la-bootsect.Tpo -c -o libntfs_3g_la-bootsect.lo `test -f 'bootsect.c' || echo './'`bootsect.c
 gcc -DHAVE_CONFIG_H -I. -I.. -I../include/ntfs-3g -O2 -march=i586 -mtune=i686 -Wall -MT libntfs_3g_la-bootsect.lo -MD -MP -MF .deps/libntfs_3g_la-bootsect.Tpo -c bootsect.c  -fPIC -DPIC -o .libs/libntfs_3g_la-bootsect.o
mv -f .deps/libntfs_3g_la-bootsect.Tpo .deps/libntfs_3g_la-bootsect.Plo
/bin/sh ../libtool --tag=CC   --mode=compile gcc -DHAVE_CONFIG_H -I. -I..     -I../include/ntfs-3g -O2 -march=i586 -mtune=i686  -Wall -MT libntfs_3g_la-cache.lo -MD -MP -MF .deps/libntfs_3g_la-cache.Tpo -c -o libntfs_3g_la-cache.lo `test -f 'cache.c' || echo './'`cache.c
 gcc -DHAVE_CONFIG_H -I. -I.. -I../include/ntfs-3g -O2 -march=i586 -mtune=i686 -Wall -MT libntfs_3g_la-cache.lo -MD -MP -MF .deps/libntfs_3g_la-cache.Tpo -c cache.c  -fPIC -DPIC -o .libs/libntfs_3g_la-cache.o
mv -f .deps/libntfs_3g_la-cache.Tpo .deps/libntfs_3g_la-cache.Plo
/bin/sh ../libtool --tag=CC   --mode=compile gcc -DHAVE_CONFIG_H -I. -I..     -I../include/ntfs-3g -O2 -march=i586 -mtune=i686  -Wall -MT libntfs_3g_la-collate.lo -MD -MP -MF .deps/libntfs_3g_la-collate.Tpo -c -o libntfs_3g_la-collate.lo `test -f 'collate.c' || echo './'`collate.c
 gcc -DHAVE_CONFIG_H -I. -I.. -I../include/ntfs-3g -O2 -march=i586 -mtune=i686 -Wall -MT libntfs_3g_la-collate.lo -MD -MP -MF .deps/libntfs_3g_la-collate.Tpo -c collate.c  -fPIC -DPIC -o .libs/libntfs_3g_la-collate.o
mv -f .deps/libntfs_3g_la-collate.Tpo .deps/libntfs_3g_la-collate.Plo
/bin/sh ../libtool --tag=CC   --mode=compile gcc -DHAVE_CONFIG_H -I. -I..     -I../include/ntfs-3g -O2 -march=i586 -mtune=i686  -Wall -MT libntfs_3g_la-compat.lo -MD -MP -MF .deps/libntfs_3g_la-compat.Tpo -c -o libntfs_3g_la-compat.lo `test -f 'compat.c' || echo './'`compat.c
 gcc -DHAVE_CONFIG_H -I. -I.. -I../include/ntfs-3g -O2 -march=i586 -mtune=i686 -Wall -MT libntfs_3g_la-compat.lo -MD -MP -MF .deps/libntfs_3g_la-compat.Tpo -c compat.c  -fPIC -DPIC -o .libs/libntfs_3g_la-compat.o
mv -f .deps/libntfs_3g_la-compat.Tpo .deps/libntfs_3g_la-compat.Plo
/bin/sh ../libtool --tag=CC   --mode=compile gcc -DHAVE_CONFIG_H -I. -I..     -I../include/ntfs-3g -O2 -march=i586 -mtune=i686  -Wall -MT libntfs_3g_la-compress.lo -MD -MP -MF .deps/libntfs_3g_la-compress.Tpo -c -o libntfs_3g_la-compress.lo `test -f 'compress.c' || echo './'`compress.c
 gcc -DHAVE_CONFIG_H -I. -I.. -I../include/ntfs-3g -O2 -march=i586 -mtune=i686 -Wall -MT libntfs_3g_la-compress.lo -MD -MP -MF .deps/libntfs_3g_la-compress.Tpo -c compress.c  -fPIC -DPIC -o .libs/libntfs_3g_la-compress.o
mv -f .deps/libntfs_3g_la-compress.Tpo .deps/libntfs_3g_la-compress.Plo
/bin/sh ../libtool --tag=CC   --mode=compile gcc -DHAVE_CONFIG_H -I. -I..     -I../include/ntfs-3g -O2 -march=i586 -mtune=i686  -Wall -MT libntfs_3g_la-debug.lo -MD -MP -MF .deps/libntfs_3g_la-debug.Tpo -c -o libntfs_3g_la-debug.lo `test -f 'debug.c' || echo './'`debug.c
 gcc -DHAVE_CONFIG_H -I. -I.. -I../include/ntfs-3g -O2 -march=i586 -mtune=i686 -Wall -MT libntfs_3g_la-debug.lo -MD -MP -MF .deps/libntfs_3g_la-debug.Tpo -c debug.c  -fPIC -DPIC -o .libs/libntfs_3g_la-debug.o
mv -f .deps/libntfs_3g_la-debug.Tpo .deps/libntfs_3g_la-debug.Plo
/bin/sh ../libtool --tag=CC   --mode=compile gcc -DHAVE_CONFIG_H -I. -I..     -I../include/ntfs-3g -O2 -march=i586 -mtune=i686  -Wall -MT libntfs_3g_la-device.lo -MD -MP -MF .deps/libntfs_3g_la-device.Tpo -c -o libntfs_3g_la-device.lo `test -f 'device.c' || echo './'`device.c
 gcc -DHAVE_CONFIG_H -I. -I.. -I../include/ntfs-3g -O2 -march=i586 -mtune=i686 -Wall -MT libntfs_3g_la-device.lo -MD -MP -MF .deps/libntfs_3g_la-device.Tpo -c device.c  -fPIC -DPIC -o .libs/libntfs_3g_la-device.o
mv -f .deps/libntfs_3g_la-device.Tpo .deps/libntfs_3g_la-device.Plo
/bin/sh ../libtool --tag=CC   --mode=compile gcc -DHAVE_CONFIG_H -I. -I..     -I../include/ntfs-3g -O2 -march=i586 -mtune=i686  -Wall -MT libntfs_3g_la-dir.lo -MD -MP -MF .deps/libntfs_3g_la-dir.Tpo -c -o libntfs_3g_la-dir.lo `test -f 'dir.c' || echo './'`dir.c
 gcc -DHAVE_CONFIG_H -I. -I.. -I../include/ntfs-3g -O2 -march=i586 -mtune=i686 -Wall -MT libntfs_3g_la-dir.lo -MD -MP -MF .deps/libntfs_3g_la-dir.Tpo -c dir.c  -fPIC -DPIC -o .libs/libntfs_3g_la-dir.o
mv -f .deps/libntfs_3g_la-dir.Tpo .deps/libntfs_3g_la-dir.Plo
/bin/sh ../libtool --tag=CC   --mode=compile gcc -DHAVE_CONFIG_H -I. -I..     -I../include/ntfs-3g -O2 -march=i586 -mtune=i686  -Wall -MT libntfs_3g_la-efs.lo -MD -MP -MF .deps/libntfs_3g_la-efs.Tpo -c -o libntfs_3g_la-efs.lo `test -f 'efs.c' || echo './'`efs.c
 gcc -DHAVE_CONFIG_H -I. -I.. -I../include/ntfs-3g -O2 -march=i586 -mtune=i686 -Wall -MT libntfs_3g_la-efs.lo -MD -MP -MF .deps/libntfs_3g_la-efs.Tpo -c efs.c  -fPIC -DPIC -o .libs/libntfs_3g_la-efs.o
mv -f .deps/libntfs_3g_la-efs.Tpo .deps/libntfs_3g_la-efs.Plo
/bin/sh ../libtool --tag=CC   --mode=compile gcc -DHAVE_CONFIG_H -I. -I..     -I../include/ntfs-3g -O2 -march=i586 -mtune=i686  -Wall -MT libntfs_3g_la-index.lo -MD -MP -MF .deps/libntfs_3g_la-index.Tpo -c -o libntfs_3g_la-index.lo `test -f 'index.c' || echo './'`index.c
 gcc -DHAVE_CONFIG_H -I. -I.. -I../include/ntfs-3g -O2 -march=i586 -mtune=i686 -Wall -MT libntfs_3g_la-index.lo -MD -MP -MF .deps/libntfs_3g_la-index.Tpo -c index.c  -fPIC -DPIC -o .libs/libntfs_3g_la-index.o
mv -f .deps/libntfs_3g_la-index.Tpo .deps/libntfs_3g_la-index.Plo
/bin/sh ../libtool --tag=CC   --mode=compile gcc -DHAVE_CONFIG_H -I. -I..     -I../include/ntfs-3g -O2 -march=i586 -mtune=i686  -Wall -MT libntfs_3g_la-inode.lo -MD -MP -MF .deps/libntfs_3g_la-inode.Tpo -c -o libntfs_3g_la-inode.lo `test -f 'inode.c' || echo './'`inode.c
 gcc -DHAVE_CONFIG_H -I. -I.. -I../include/ntfs-3g -O2 -march=i586 -mtune=i686 -Wall -MT libntfs_3g_la-inode.lo -MD -MP -MF .deps/libntfs_3g_la-inode.Tpo -c inode.c  -fPIC -DPIC -o .libs/libntfs_3g_la-inode.o
mv -f .deps/libntfs_3g_la-inode.Tpo .deps/libntfs_3g_la-inode.Plo
/bin/sh ../libtool --tag=CC   --mode=compile gcc -DHAVE_CONFIG_H -I. -I..     -I../include/ntfs-3g -O2 -march=i586 -mtune=i686  -Wall -MT libntfs_3g_la-lcnalloc.lo -MD -MP -MF .deps/libntfs_3g_la-lcnalloc.Tpo -c -o libntfs_3g_la-lcnalloc.lo `test -f 'lcnalloc.c' || echo './'`lcnalloc.c
 gcc -DHAVE_CONFIG_H -I. -I.. -I../include/ntfs-3g -O2 -march=i586 -mtune=i686 -Wall -MT libntfs_3g_la-lcnalloc.lo -MD -MP -MF .deps/libntfs_3g_la-lcnalloc.Tpo -c lcnalloc.c  -fPIC -DPIC -o .libs/libntfs_3g_la-lcnalloc.o
mv -f .deps/libntfs_3g_la-lcnalloc.Tpo .deps/libntfs_3g_la-lcnalloc.Plo
/bin/sh ../libtool --tag=CC   --mode=compile gcc -DHAVE_CONFIG_H -I. -I..     -I../include/ntfs-3g -O2 -march=i586 -mtune=i686  -Wall -MT libntfs_3g_la-logfile.lo -MD -MP -MF .deps/libntfs_3g_la-logfile.Tpo -c -o libntfs_3g_la-logfile.lo `test -f 'logfile.c' || echo './'`logfile.c
 gcc -DHAVE_CONFIG_H -I. -I.. -I../include/ntfs-3g -O2 -march=i586 -mtune=i686 -Wall -MT libntfs_3g_la-logfile.lo -MD -MP -MF .deps/libntfs_3g_la-logfile.Tpo -c logfile.c  -fPIC -DPIC -o .libs/libntfs_3g_la-logfile.o
mv -f .deps/libntfs_3g_la-logfile.Tpo .deps/libntfs_3g_la-logfile.Plo
/bin/sh ../libtool --tag=CC   --mode=compile gcc -DHAVE_CONFIG_H -I. -I..     -I../include/ntfs-3g -O2 -march=i586 -mtune=i686  -Wall -MT libntfs_3g_la-logging.lo -MD -MP -MF .deps/libntfs_3g_la-logging.Tpo -c -o libntfs_3g_la-logging.lo `test -f 'logging.c' || echo './'`logging.c
 gcc -DHAVE_CONFIG_H -I. -I.. -I../include/ntfs-3g -O2 -march=i586 -mtune=i686 -Wall -MT libntfs_3g_la-logging.lo -MD -MP -MF .deps/libntfs_3g_la-logging.Tpo -c logging.c  -fPIC -DPIC -o .libs/libntfs_3g_la-logging.o
mv -f .deps/libntfs_3g_la-logging.Tpo .deps/libntfs_3g_la-logging.Plo
/bin/sh ../libtool --tag=CC   --mode=compile gcc -DHAVE_CONFIG_H -I. -I..     -I../include/ntfs-3g -O2 -march=i586 -mtune=i686  -Wall -MT libntfs_3g_la-mft.lo -MD -MP -MF .deps/libntfs_3g_la-mft.Tpo -c -o libntfs_3g_la-mft.lo `test -f 'mft.c' || echo './'`mft.c
 gcc -DHAVE_CONFIG_H -I. -I.. -I../include/ntfs-3g -O2 -march=i586 -mtune=i686 -Wall -MT libntfs_3g_la-mft.lo -MD -MP -MF .deps/libntfs_3g_la-mft.Tpo -c mft.c  -fPIC -DPIC -o .libs/libntfs_3g_la-mft.o
mv -f .deps/libntfs_3g_la-mft.Tpo .deps/libntfs_3g_la-mft.Plo
/bin/sh ../libtool --tag=CC   --mode=compile gcc -DHAVE_CONFIG_H -I. -I..     -I../include/ntfs-3g -O2 -march=i586 -mtune=i686  -Wall -MT libntfs_3g_la-misc.lo -MD -MP -MF .deps/libntfs_3g_la-misc.Tpo -c -o libntfs_3g_la-misc.lo `test -f 'misc.c' || echo './'`misc.c
 gcc -DHAVE_CONFIG_H -I. -I.. -I../include/ntfs-3g -O2 -march=i586 -mtune=i686 -Wall -MT libntfs_3g_la-misc.lo -MD -MP -MF .deps/libntfs_3g_la-misc.Tpo -c misc.c  -fPIC -DPIC -o .libs/libntfs_3g_la-misc.o
mv -f .deps/libntfs_3g_la-misc.Tpo .deps/libntfs_3g_la-misc.Plo
/bin/sh ../libtool --tag=CC   --mode=compile gcc -DHAVE_CONFIG_H -I. -I..     -I../include/ntfs-3g -O2 -march=i586 -mtune=i686  -Wall -MT libntfs_3g_la-mst.lo -MD -MP -MF .deps/libntfs_3g_la-mst.Tpo -c -o libntfs_3g_la-mst.lo `test -f 'mst.c' || echo './'`mst.c
 gcc -DHAVE_CONFIG_H -I. -I.. -I../include/ntfs-3g -O2 -march=i586 -mtune=i686 -Wall -MT libntfs_3g_la-mst.lo -MD -MP -MF .deps/libntfs_3g_la-mst.Tpo -c mst.c  -fPIC -DPIC -o .libs/libntfs_3g_la-mst.o
mv -f .deps/libntfs_3g_la-mst.Tpo .deps/libntfs_3g_la-mst.Plo
/bin/sh ../libtool --tag=CC   --mode=compile gcc -DHAVE_CONFIG_H -I. -I..     -I../include/ntfs-3g -O2 -march=i586 -mtune=i686  -Wall -MT libntfs_3g_la-object_id.lo -MD -MP -MF .deps/libntfs_3g_la-object_id.Tpo -c -o libntfs_3g_la-object_id.lo `test -f 'object_id.c' || echo './'`object_id.c
 gcc -DHAVE_CONFIG_H -I. -I.. -I../include/ntfs-3g -O2 -march=i586 -mtune=i686 -Wall -MT libntfs_3g_la-object_id.lo -MD -MP -MF .deps/libntfs_3g_la-object_id.Tpo -c object_id.c  -fPIC -DPIC -o .libs/libntfs_3g_la-object_id.o
mv -f .deps/libntfs_3g_la-object_id.Tpo .deps/libntfs_3g_la-object_id.Plo
/bin/sh ../libtool --tag=CC   --mode=compile gcc -DHAVE_CONFIG_H -I. -I..     -I../include/ntfs-3g -O2 -march=i586 -mtune=i686  -Wall -MT libntfs_3g_la-realpath.lo -MD -MP -MF .deps/libntfs_3g_la-realpath.Tpo -c -o libntfs_3g_la-realpath.lo `test -f 'realpath.c' || echo './'`realpath.c
 gcc -DHAVE_CONFIG_H -I. -I.. -I../include/ntfs-3g -O2 -march=i586 -mtune=i686 -Wall -MT libntfs_3g_la-realpath.lo -MD -MP -MF .deps/libntfs_3g_la-realpath.Tpo -c realpath.c  -fPIC -DPIC -o .libs/libntfs_3g_la-realpath.o
mv -f .deps/libntfs_3g_la-realpath.Tpo .deps/libntfs_3g_la-realpath.Plo
/bin/sh ../libtool --tag=CC   --mode=compile gcc -DHAVE_CONFIG_H -I. -I..     -I../include/ntfs-3g -O2 -march=i586 -mtune=i686  -Wall -MT libntfs_3g_la-reparse.lo -MD -MP -MF .deps/libntfs_3g_la-reparse.Tpo -c -o libntfs_3g_la-reparse.lo `test -f 'reparse.c' || echo './'`reparse.c
 gcc -DHAVE_CONFIG_H -I. -I.. -I../include/ntfs-3g -O2 -march=i586 -mtune=i686 -Wall -MT libntfs_3g_la-reparse.lo -MD -MP -MF .deps/libntfs_3g_la-reparse.Tpo -c reparse.c  -fPIC -DPIC -o .libs/libntfs_3g_la-reparse.o
mv -f .deps/libntfs_3g_la-reparse.Tpo .deps/libntfs_3g_la-reparse.Plo
/bin/sh ../libtool --tag=CC   --mode=compile gcc -DHAVE_CONFIG_H -I. -I..     -I../include/ntfs-3g -O2 -march=i586 -mtune=i686  -Wall -MT libntfs_3g_la-runlist.lo -MD -MP -MF .deps/libntfs_3g_la-runlist.Tpo -c -o libntfs_3g_la-runlist.lo `test -f 'runlist.c' || echo './'`runlist.c
 gcc -DHAVE_CONFIG_H -I. -I.. -I../include/ntfs-3g -O2 -march=i586 -mtune=i686 -Wall -MT libntfs_3g_la-runlist.lo -MD -MP -MF .deps/libntfs_3g_la-runlist.Tpo -c runlist.c  -fPIC -DPIC -o .libs/libntfs_3g_la-runlist.o
mv -f .deps/libntfs_3g_la-runlist.Tpo .deps/libntfs_3g_la-runlist.Plo
/bin/sh ../libtool --tag=CC   --mode=compile gcc -DHAVE_CONFIG_H -I. -I..     -I../include/ntfs-3g -O2 -march=i586 -mtune=i686  -Wall -MT libntfs_3g_la-security.lo -MD -MP -MF .deps/libntfs_3g_la-security.Tpo -c -o libntfs_3g_la-security.lo `test -f 'security.c' || echo './'`security.c
 gcc -DHAVE_CONFIG_H -I. -I.. -I../include/ntfs-3g -O2 -march=i586 -mtune=i686 -Wall -MT libntfs_3g_la-security.lo -MD -MP -MF .deps/libntfs_3g_la-security.Tpo -c security.c  -fPIC -DPIC -o .libs/libntfs_3g_la-security.o
mv -f .deps/libntfs_3g_la-security.Tpo .deps/libntfs_3g_la-security.Plo
/bin/sh ../libtool --tag=CC   --mode=compile gcc -DHAVE_CONFIG_H -I. -I..     -I../include/ntfs-3g -O2 -march=i586 -mtune=i686  -Wall -MT libntfs_3g_la-unistr.lo -MD -MP -MF .deps/libntfs_3g_la-unistr.Tpo -c -o libntfs_3g_la-unistr.lo `test -f 'unistr.c' || echo './'`unistr.c
 gcc -DHAVE_CONFIG_H -I. -I.. -I../include/ntfs-3g -O2 -march=i586 -mtune=i686 -Wall -MT libntfs_3g_la-unistr.lo -MD -MP -MF .deps/libntfs_3g_la-unistr.Tpo -c unistr.c  -fPIC -DPIC -o .libs/libntfs_3g_la-unistr.o
mv -f .deps/libntfs_3g_la-unistr.Tpo .deps/libntfs_3g_la-unistr.Plo
/bin/sh ../libtool --tag=CC   --mode=compile gcc -DHAVE_CONFIG_H -I. -I..     -I../include/ntfs-3g -O2 -march=i586 -mtune=i686  -Wall -MT libntfs_3g_la-volume.lo -MD -MP -MF .deps/libntfs_3g_la-volume.Tpo -c -o libntfs_3g_la-volume.lo `test -f 'volume.c' || echo './'`volume.c
 gcc -DHAVE_CONFIG_H -I. -I.. -I../include/ntfs-3g -O2 -march=i586 -mtune=i686 -Wall -MT libntfs_3g_la-volume.lo -MD -MP -MF .deps/libntfs_3g_la-volume.Tpo -c volume.c  -fPIC -DPIC -o .libs/libntfs_3g_la-volume.o
mv -f .deps/libntfs_3g_la-volume.Tpo .deps/libntfs_3g_la-volume.Plo
/bin/sh ../libtool --tag=CC   --mode=compile gcc -DHAVE_CONFIG_H -I. -I..     -I../include/ntfs-3g -O2 -march=i586 -mtune=i686  -Wall -MT libntfs_3g_la-xattrs.lo -MD -MP -MF .deps/libntfs_3g_la-xattrs.Tpo -c -o libntfs_3g_la-xattrs.lo `test -f 'xattrs.c' || echo './'`xattrs.c
 gcc -DHAVE_CONFIG_H -I. -I.. -I../include/ntfs-3g -O2 -march=i586 -mtune=i686 -Wall -MT libntfs_3g_la-xattrs.lo -MD -MP -MF .deps/libntfs_3g_la-xattrs.Tpo -c xattrs.c  -fPIC -DPIC -o .libs/libntfs_3g_la-xattrs.o
mv -f .deps/libntfs_3g_la-xattrs.Tpo .deps/libntfs_3g_la-xattrs.Plo
/bin/sh ../libtool --tag=CC   --mode=compile gcc -DHAVE_CONFIG_H -I. -I..     -I../include/ntfs-3g -O2 -march=i586 -mtune=i686  -Wall -MT libntfs_3g_la-unix_io.lo -MD -MP -MF .deps/libntfs_3g_la-unix_io.Tpo -c -o libntfs_3g_la-unix_io.lo `test -f 'unix_io.c' || echo './'`unix_io.c
 gcc -DHAVE_CONFIG_H -I. -I.. -I../include/ntfs-3g -O2 -march=i586 -mtune=i686 -Wall -MT libntfs_3g_la-unix_io.lo -MD -MP -MF .deps/libntfs_3g_la-unix_io.Tpo -c unix_io.c  -fPIC -DPIC -o .libs/libntfs_3g_la-unix_io.o
mv -f .deps/libntfs_3g_la-unix_io.Tpo .deps/libntfs_3g_la-unix_io.Plo
/bin/sh ../libtool --tag=CC   --mode=link gcc  -I../include/ntfs-3g -O2 -march=i586 -mtune=i686  -Wall -version-info 83 -no-undefined  -o libntfs-3g.la -rpath /usr/lib libntfs_3g_la-acls.lo libntfs_3g_la-attrib.lo libntfs_3g_la-attrlist.lo libntfs_3g_la-bitmap.lo libntfs_3g_la-bootsect.lo libntfs_3g_la-cache.lo libntfs_3g_la-collate.lo libntfs_3g_la-compat.lo libntfs_3g_la-compress.lo libntfs_3g_la-debug.lo libntfs_3g_la-device.lo libntfs_3g_la-dir.lo libntfs_3g_la-efs.lo libntfs_3g_la-index.lo libntfs_3g_la-inode.lo libntfs_3g_la-lcnalloc.lo libntfs_3g_la-logfile.lo libntfs_3g_la-logging.lo libntfs_3g_la-mft.lo libntfs_3g_la-misc.lo libntfs_3g_la-mst.lo libntfs_3g_la-object_id.lo libntfs_3g_la-realpath.lo libntfs_3g_la-reparse.lo libntfs_3g_la-runlist.lo libntfs_3g_la-security.lo libntfs_3g_la-unistr.lo libntfs_3g_la-volume.lo libntfs_3g_la-xattrs.lo  libntfs_3g_la-unix_io.lo  
gcc -shared  .libs/libntfs_3g_la-acls.o .libs/libntfs_3g_la-attrib.o .libs/libntfs_3g_la-attrlist.o .libs/libntfs_3g_la-bitmap.o .libs/libntfs_3g_la-bootsect.o .libs/libntfs_3g_la-cache.o .libs/libntfs_3g_la-collate.o .libs/libntfs_3g_la-compat.o .libs/libntfs_3g_la-compress.o .libs/libntfs_3g_la-debug.o .libs/libntfs_3g_la-device.o .libs/libntfs_3g_la-dir.o .libs/libntfs_3g_la-efs.o .libs/libntfs_3g_la-index.o .libs/libntfs_3g_la-inode.o .libs/libntfs_3g_la-lcnalloc.o .libs/libntfs_3g_la-logfile.o .libs/libntfs_3g_la-logging.o .libs/libntfs_3g_la-mft.o .libs/libntfs_3g_la-misc.o .libs/libntfs_3g_la-mst.o .libs/libntfs_3g_la-object_id.o .libs/libntfs_3g_la-realpath.o .libs/libntfs_3g_la-reparse.o .libs/libntfs_3g_la-runlist.o .libs/libntfs_3g_la-security.o .libs/libntfs_3g_la-unistr.o .libs/libntfs_3g_la-volume.o .libs/libntfs_3g_la-xattrs.o .libs/libntfs_3g_la-unix_io.o   -march=i586 -mtune=i686 -Wl,-soname -Wl,libntfs-3g.so.83 -o .libs/libntfs-3g.so.83.0.0
(cd .libs && rm -f libntfs-3g.so.83 && ln -s libntfs-3g.so.83.0.0 libntfs-3g.so.83)
(cd .libs && rm -f libntfs-3g.so && ln -s libntfs-3g.so.83.0.0 libntfs-3g.so)
creating libntfs-3g.la
(cd .libs && rm -f libntfs-3g.la && ln -s ../libntfs-3g.la libntfs-3g.la)
make[2]: Leaving directory `/home/ken/vectorlinux/packaging/pactions/ntfs-3g_ntfsprogs/ntfs-3g_ntfsprogs/2012.1.15/tmp/ntfs-3g_ntfsprogs-2012.1.15/libntfs-3g'
Making all in ntfsprogs
make[2]: Entering directory `/home/ken/vectorlinux/packaging/pactions/ntfs-3g_ntfsprogs/ntfs-3g_ntfsprogs/2012.1.15/tmp/ntfs-3g_ntfsprogs-2012.1.15/ntfsprogs'
gcc -DHAVE_CONFIG_H -I. -I..  -I../include/ntfs-3g    -O2 -march=i586 -mtune=i686  -Wall -MT ntfsfix.o -MD -MP -MF .deps/ntfsfix.Tpo -c -o ntfsfix.o ntfsfix.c
mv -f .deps/ntfsfix.Tpo .deps/ntfsfix.Po
gcc -DHAVE_CONFIG_H -I. -I..  -I../include/ntfs-3g    -O2 -march=i586 -mtune=i686  -Wall -MT utils.o -MD -MP -MF .deps/utils.Tpo -c -o utils.o utils.c
mv -f .deps/utils.Tpo .deps/utils.Po
/bin/sh ../libtool --tag=CC   --mode=link gcc  -O2 -march=i586 -mtune=i686  -Wall   -o ntfsfix ntfsfix.o utils.o ../libntfs-3g/libntfs-3g.la 
mkdir .libs
gcc -O2 -march=i586 -mtune=i686 -Wall -o .libs/ntfsfix ntfsfix.o utils.o  ../libntfs-3g/.libs/libntfs-3g.so 
creating ntfsfix
gcc -DHAVE_CONFIG_H -I. -I..  -I../include/ntfs-3g    -O2 -march=i586 -mtune=i686  -Wall -MT ntfsinfo.o -MD -MP -MF .deps/ntfsinfo.Tpo -c -o ntfsinfo.o ntfsinfo.c
mv -f .deps/ntfsinfo.Tpo .deps/ntfsinfo.Po
/bin/sh ../libtool --tag=CC   --mode=link gcc  -O2 -march=i586 -mtune=i686  -Wall   -o ntfsinfo ntfsinfo.o utils.o ../libntfs-3g/libntfs-3g.la 
gcc -O2 -march=i586 -mtune=i686 -Wall -o .libs/ntfsinfo ntfsinfo.o utils.o  ../libntfs-3g/.libs/libntfs-3g.so 
creating ntfsinfo
gcc -DHAVE_CONFIG_H -I. -I..  -I../include/ntfs-3g    -O2 -march=i586 -mtune=i686  -Wall -MT ntfscluster.o -MD -MP -MF .deps/ntfscluster.Tpo -c -o ntfscluster.o ntfscluster.c
mv -f .deps/ntfscluster.Tpo .deps/ntfscluster.Po
gcc -DHAVE_CONFIG_H -I. -I..  -I../include/ntfs-3g    -O2 -march=i586 -mtune=i686  -Wall -MT cluster.o -MD -MP -MF .deps/cluster.Tpo -c -o cluster.o cluster.c
mv -f .deps/cluster.Tpo .deps/cluster.Po
/bin/sh ../libtool --tag=CC   --mode=link gcc  -O2 -march=i586 -mtune=i686  -Wall   -o ntfscluster ntfscluster.o cluster.o utils.o ../libntfs-3g/libntfs-3g.la 
gcc -O2 -march=i586 -mtune=i686 -Wall -o .libs/ntfscluster ntfscluster.o cluster.o utils.o  ../libntfs-3g/.libs/libntfs-3g.so 
creating ntfscluster
gcc -DHAVE_CONFIG_H -I. -I..  -I../include/ntfs-3g    -O2 -march=i586 -mtune=i686  -Wall -MT ntfsls.o -MD -MP -MF .deps/ntfsls.Tpo -c -o ntfsls.o ntfsls.c
mv -f .deps/ntfsls.Tpo .deps/ntfsls.Po
/bin/sh ../libtool --tag=CC   --mode=link gcc  -O2 -march=i586 -mtune=i686  -Wall   -o ntfsls ntfsls.o utils.o ../libntfs-3g/libntfs-3g.la 
gcc -O2 -march=i586 -mtune=i686 -Wall -o .libs/ntfsls ntfsls.o utils.o  ../libntfs-3g/.libs/libntfs-3g.so 
creating ntfsls
gcc -DHAVE_CONFIG_H -I. -I..  -I../include/ntfs-3g    -O2 -march=i586 -mtune=i686  -Wall -MT ntfscat.o -MD -MP -MF .deps/ntfscat.Tpo -c -o ntfscat.o ntfscat.c
mv -f .deps/ntfscat.Tpo .deps/ntfscat.Po
/bin/sh ../libtool --tag=CC   --mode=link gcc  -O2 -march=i586 -mtune=i686  -Wall   -o ntfscat ntfscat.o utils.o ../libntfs-3g/libntfs-3g.la 
gcc -O2 -march=i586 -mtune=i686 -Wall -o .libs/ntfscat ntfscat.o utils.o  ../libntfs-3g/.libs/libntfs-3g.so 
creating ntfscat
gcc -DHAVE_CONFIG_H -I. -I..  -I../include/ntfs-3g    -O2 -march=i586 -mtune=i686  -Wall -MT ntfscmp.o -MD -MP -MF .deps/ntfscmp.Tpo -c -o ntfscmp.o ntfscmp.c
mv -f .deps/ntfscmp.Tpo .deps/ntfscmp.Po
/bin/sh ../libtool --tag=CC   --mode=link gcc  -O2 -march=i586 -mtune=i686  -Wall   -o ntfscmp ntfscmp.o utils.o ../libntfs-3g/libntfs-3g.la 
gcc -O2 -march=i586 -mtune=i686 -Wall -o .libs/ntfscmp ntfscmp.o utils.o  ../libntfs-3g/.libs/libntfs-3g.so 
creating ntfscmp
gcc -DHAVE_CONFIG_H -I. -I..  -I../include/ntfs-3g     -O2 -march=i586 -mtune=i686  -Wall -MT mkntfs-attrdef.o -MD -MP -MF .deps/mkntfs-attrdef.Tpo -c -o mkntfs-attrdef.o `test -f 'attrdef.c' || echo './'`attrdef.c
mv -f .deps/mkntfs-attrdef.Tpo .deps/mkntfs-attrdef.Po
gcc -DHAVE_CONFIG_H -I. -I..  -I../include/ntfs-3g     -O2 -march=i586 -mtune=i686  -Wall -MT mkntfs-boot.o -MD -MP -MF .deps/mkntfs-boot.Tpo -c -o mkntfs-boot.o `test -f 'boot.c' || echo './'`boot.c
mv -f .deps/mkntfs-boot.Tpo .deps/mkntfs-boot.Po
gcc -DHAVE_CONFIG_H -I. -I..  -I../include/ntfs-3g     -O2 -march=i586 -mtune=i686  -Wall -MT mkntfs-sd.o -MD -MP -MF .deps/mkntfs-sd.Tpo -c -o mkntfs-sd.o `test -f 'sd.c' || echo './'`sd.c
mv -f .deps/mkntfs-sd.Tpo .deps/mkntfs-sd.Po
gcc -DHAVE_CONFIG_H -I. -I..  -I../include/ntfs-3g     -O2 -march=i586 -mtune=i686  -Wall -MT mkntfs-mkntfs.o -MD -MP -MF .deps/mkntfs-mkntfs.Tpo -c -o mkntfs-mkntfs.o `test -f 'mkntfs.c' || echo './'`mkntfs.c
mv -f .deps/mkntfs-mkntfs.Tpo .deps/mkntfs-mkntfs.Po
gcc -DHAVE_CONFIG_H -I. -I..  -I../include/ntfs-3g     -O2 -march=i586 -mtune=i686  -Wall -MT mkntfs-utils.o -MD -MP -MF .deps/mkntfs-utils.Tpo -c -o mkntfs-utils.o `test -f 'utils.c' || echo './'`utils.c
mv -f .deps/mkntfs-utils.Tpo .deps/mkntfs-utils.Po
/bin/sh ../libtool --tag=CC   --mode=link gcc  -O2 -march=i586 -mtune=i686  -Wall   -o mkntfs mkntfs-attrdef.o mkntfs-boot.o mkntfs-sd.o mkntfs-mkntfs.o mkntfs-utils.o ../libntfs-3g/libntfs-3g.la -luuid 
gcc -O2 -march=i586 -mtune=i686 -Wall -o .libs/mkntfs mkntfs-attrdef.o mkntfs-boot.o mkntfs-sd.o mkntfs-mkntfs.o mkntfs-utils.o  ../libntfs-3g/.libs/libntfs-3g.so /usr/lib/libuuid.so 
creating mkntfs
gcc -DHAVE_CONFIG_H -I. -I..  -I../include/ntfs-3g    -O2 -march=i586 -mtune=i686  -Wall -MT ntfslabel.o -MD -MP -MF .deps/ntfslabel.Tpo -c -o ntfslabel.o ntfslabel.c
mv -f .deps/ntfslabel.Tpo .deps/ntfslabel.Po
/bin/sh ../libtool --tag=CC   --mode=link gcc  -O2 -march=i586 -mtune=i686  -Wall   -o ntfslabel ntfslabel.o utils.o ../libntfs-3g/libntfs-3g.la 
gcc -O2 -march=i586 -mtune=i686 -Wall -o .libs/ntfslabel ntfslabel.o utils.o  ../libntfs-3g/.libs/libntfs-3g.so 
creating ntfslabel
gcc -DHAVE_CONFIG_H -I. -I..  -I../include/ntfs-3g    -O2 -march=i586 -mtune=i686  -Wall -MT ntfsundelete.o -MD -MP -MF .deps/ntfsundelete.Tpo -c -o ntfsundelete.o ntfsundelete.c
mv -f .deps/ntfsundelete.Tpo .deps/ntfsundelete.Po
/bin/sh ../libtool --tag=CC   --mode=link gcc  -O2 -march=i586 -mtune=i686  -Wall   -o ntfsundelete ntfsundelete.o utils.o ../libntfs-3g/libntfs-3g.la 
gcc -O2 -march=i586 -mtune=i686 -Wall -o .libs/ntfsundelete ntfsundelete.o utils.o  ../libntfs-3g/.libs/libntfs-3g.so 
creating ntfsundelete
gcc -DHAVE_CONFIG_H -I. -I..  -I../include/ntfs-3g    -O2 -march=i586 -mtune=i686  -Wall -MT ntfsresize.o -MD -MP -MF .deps/ntfsresize.Tpo -c -o ntfsresize.o ntfsresize.c
mv -f .deps/ntfsresize.Tpo .deps/ntfsresize.Po
/bin/sh ../libtool --tag=CC   --mode=link gcc  -O2 -march=i586 -mtune=i686  -Wall   -o ntfsresize ntfsresize.o utils.o ../libntfs-3g/libntfs-3g.la 
gcc -O2 -march=i586 -mtune=i686 -Wall -o .libs/ntfsresize ntfsresize.o utils.o  ../libntfs-3g/.libs/libntfs-3g.so 
creating ntfsresize
gcc -DHAVE_CONFIG_H -I. -I..  -I../include/ntfs-3g    -O2 -march=i586 -mtune=i686  -Wall -MT ntfsclone.o -MD -MP -MF .deps/ntfsclone.Tpo -c -o ntfsclone.o ntfsclone.c
mv -f .deps/ntfsclone.Tpo .deps/ntfsclone.Po
/bin/sh ../libtool --tag=CC   --mode=link gcc  -O2 -march=i586 -mtune=i686  -Wall   -o ntfsclone ntfsclone.o utils.o ../libntfs-3g/libntfs-3g.la 
gcc -O2 -march=i586 -mtune=i686 -Wall -o .libs/ntfsclone ntfsclone.o utils.o  ../libntfs-3g/.libs/libntfs-3g.so 
creating ntfsclone
gcc -DHAVE_CONFIG_H -I. -I..  -I../include/ntfs-3g    -O2 -march=i586 -mtune=i686  -Wall -MT ntfscp.o -MD -MP -MF .deps/ntfscp.Tpo -c -o ntfscp.o ntfscp.c
mv -f .deps/ntfscp.Tpo .deps/ntfscp.Po
/bin/sh ../libtool --tag=CC   --mode=link gcc  -O2 -march=i586 -mtune=i686  -Wall   -o ntfscp ntfscp.o utils.o ../libntfs-3g/libntfs-3g.la 
gcc -O2 -march=i586 -mtune=i686 -Wall -o .libs/ntfscp ntfscp.o utils.o  ../libntfs-3g/.libs/libntfs-3g.so 
creating ntfscp
make[2]: Leaving directory `/home/ken/vectorlinux/packaging/pactions/ntfs-3g_ntfsprogs/ntfs-3g_ntfsprogs/2012.1.15/tmp/ntfs-3g_ntfsprogs-2012.1.15/ntfsprogs'
Making all in src
make[2]: Entering directory `/home/ken/vectorlinux/packaging/pactions/ntfs-3g_ntfsprogs/ntfs-3g_ntfsprogs/2012.1.15/tmp/ntfs-3g_ntfsprogs-2012.1.15/src'
gcc -DHAVE_CONFIG_H -I. -I..     -I../include/ntfs-3g -O2 -march=i586 -mtune=i686  -Wall -MT ntfs_3g_probe-ntfs-3g.probe.o -MD -MP -MF .deps/ntfs_3g_probe-ntfs-3g.probe.Tpo -c -o ntfs_3g_probe-ntfs-3g.probe.o `test -f 'ntfs-3g.probe.c' || echo './'`ntfs-3g.probe.c
mv -f .deps/ntfs_3g_probe-ntfs-3g.probe.Tpo .deps/ntfs_3g_probe-ntfs-3g.probe.Po
/bin/sh ../libtool --tag=CC   --mode=link gcc  -I../include/ntfs-3g -O2 -march=i586 -mtune=i686  -Wall   -o ntfs-3g.probe ntfs_3g_probe-ntfs-3g.probe.o ../libntfs-3g/libntfs-3g.la 
mkdir .libs
gcc -I../include/ntfs-3g -O2 -march=i586 -mtune=i686 -Wall -o .libs/ntfs-3g.probe ntfs_3g_probe-ntfs-3g.probe.o  ../libntfs-3g/.libs/libntfs-3g.so 
creating ntfs-3g.probe
gcc -DHAVE_CONFIG_H -I. -I..     -I../include/ntfs-3g -O2 -march=i586 -mtune=i686  -Wall -MT ntfs_3g_usermap-usermap.o -MD -MP -MF .deps/ntfs_3g_usermap-usermap.Tpo -c -o ntfs_3g_usermap-usermap.o `test -f 'usermap.c' || echo './'`usermap.c
mv -f .deps/ntfs_3g_usermap-usermap.Tpo .deps/ntfs_3g_usermap-usermap.Po
/bin/sh ../libtool --tag=CC   --mode=link gcc  -I../include/ntfs-3g -O2 -march=i586 -mtune=i686  -Wall   -o ntfs-3g.usermap ntfs_3g_usermap-usermap.o ../libntfs-3g/libntfs-3g.la 
gcc -I../include/ntfs-3g -O2 -march=i586 -mtune=i686 -Wall -o .libs/ntfs-3g.usermap ntfs_3g_usermap-usermap.o  ../libntfs-3g/.libs/libntfs-3g.so 
creating ntfs-3g.usermap
gcc -DHAVE_CONFIG_H -I. -I..     -I../include/ntfs-3g -O2 -march=i586 -mtune=i686  -Wall -MT ntfs_3g_secaudit-secaudit.o -MD -MP -MF .deps/ntfs_3g_secaudit-secaudit.Tpo -c -o ntfs_3g_secaudit-secaudit.o `test -f 'secaudit.c' || echo './'`secaudit.c
mv -f .deps/ntfs_3g_secaudit-secaudit.Tpo .deps/ntfs_3g_secaudit-secaudit.Po
/bin/sh ../libtool --tag=CC   --mode=link gcc  -I../include/ntfs-3g -O2 -march=i586 -mtune=i686  -Wall   -o ntfs-3g.secaudit ntfs_3g_secaudit-secaudit.o ../libntfs-3g/libntfs-3g.la 
gcc -I../include/ntfs-3g -O2 -march=i586 -mtune=i686 -Wall -o .libs/ntfs-3g.secaudit ntfs_3g_secaudit-secaudit.o  ../libntfs-3g/.libs/libntfs-3g.so 
creating ntfs-3g.secaudit
gcc -DHAVE_CONFIG_H -I. -I..     -DFUSE_USE_VERSION=26 -D_FILE_OFFSET_BITS=64 -I/usr/include/fuse   -I../include/ntfs-3g -O2 -march=i586 -mtune=i686  -Wall -MT ntfs_3g-ntfs-3g.o -MD -MP -MF .deps/ntfs_3g-ntfs-3g.Tpo -c -o ntfs_3g-ntfs-3g.o `test -f 'ntfs-3g.c' || echo './'`ntfs-3g.c
mv -f .deps/ntfs_3g-ntfs-3g.Tpo .deps/ntfs_3g-ntfs-3g.Po
gcc -DHAVE_CONFIG_H -I. -I..     -DFUSE_USE_VERSION=26 -D_FILE_OFFSET_BITS=64 -I/usr/include/fuse   -I../include/ntfs-3g -O2 -march=i586 -mtune=i686  -Wall -MT ntfs_3g-ntfs-3g_common.o -MD -MP -MF .deps/ntfs_3g-ntfs-3g_common.Tpo -c -o ntfs_3g-ntfs-3g_common.o `test -f 'ntfs-3g_common.c' || echo './'`ntfs-3g_common.c
mv -f .deps/ntfs_3g-ntfs-3g_common.Tpo .deps/ntfs_3g-ntfs-3g_common.Po
/bin/sh ../libtool --tag=CC   --mode=link gcc  -DFUSE_USE_VERSION=26 -D_FILE_OFFSET_BITS=64 -I/usr/include/fuse   -I../include/ntfs-3g -O2 -march=i586 -mtune=i686  -Wall   -o ntfs-3g ntfs_3g-ntfs-3g.o ntfs_3g-ntfs-3g_common.o -pthread -L/lib -lfuse -lrt -ldl   ../libntfs-3g/libntfs-3g.la 
gcc -DFUSE_USE_VERSION=26 -D_FILE_OFFSET_BITS=64 -I/usr/include/fuse -I../include/ntfs-3g -O2 -march=i586 -mtune=i686 -Wall -o .libs/ntfs-3g ntfs_3g-ntfs-3g.o ntfs_3g-ntfs-3g_common.o -pthread  -L/lib /lib/libfuse.so -lrt -ldl ../libntfs-3g/.libs/libntfs-3g.so 
creating ntfs-3g
gcc -DHAVE_CONFIG_H -I. -I..     -DFUSE_USE_VERSION=26 -D_FILE_OFFSET_BITS=64 -I/usr/include/fuse   -I../include/ntfs-3g -O2 -march=i586 -mtune=i686  -Wall -MT lowntfs_3g-lowntfs-3g.o -MD -MP -MF .deps/lowntfs_3g-lowntfs-3g.Tpo -c -o lowntfs_3g-lowntfs-3g.o `test -f 'lowntfs-3g.c' || echo './'`lowntfs-3g.c
mv -f .deps/lowntfs_3g-lowntfs-3g.Tpo .deps/lowntfs_3g-lowntfs-3g.Po
gcc -DHAVE_CONFIG_H -I. -I..     -DFUSE_USE_VERSION=26 -D_FILE_OFFSET_BITS=64 -I/usr/include/fuse   -I../include/ntfs-3g -O2 -march=i586 -mtune=i686  -Wall -MT lowntfs_3g-ntfs-3g_common.o -MD -MP -MF .deps/lowntfs_3g-ntfs-3g_common.Tpo -c -o lowntfs_3g-ntfs-3g_common.o `test -f 'ntfs-3g_common.c' || echo './'`ntfs-3g_common.c
mv -f .deps/lowntfs_3g-ntfs-3g_common.Tpo .deps/lowntfs_3g-ntfs-3g_common.Po
/bin/sh ../libtool --tag=CC   --mode=link gcc  -DFUSE_USE_VERSION=26 -D_FILE_OFFSET_BITS=64 -I/usr/include/fuse   -I../include/ntfs-3g -O2 -march=i586 -mtune=i686  -Wall   -o lowntfs-3g lowntfs_3g-lowntfs-3g.o lowntfs_3g-ntfs-3g_common.o -pthread -L/lib -lfuse -lrt -ldl   ../libntfs-3g/libntfs-3g.la 
gcc -DFUSE_USE_VERSION=26 -D_FILE_OFFSET_BITS=64 -I/usr/include/fuse -I../include/ntfs-3g -O2 -march=i586 -mtune=i686 -Wall -o .libs/lowntfs-3g lowntfs_3g-lowntfs-3g.o lowntfs_3g-ntfs-3g_common.o -pthread  -L/lib /lib/libfuse.so -lrt -ldl ../libntfs-3g/.libs/libntfs-3g.so 
creating lowntfs-3g
make[2]: Leaving directory `/home/ken/vectorlinux/packaging/pactions/ntfs-3g_ntfsprogs/ntfs-3g_ntfsprogs/2012.1.15/tmp/ntfs-3g_ntfsprogs-2012.1.15/src'
make[2]: Entering directory `/home/ken/vectorlinux/packaging/pactions/ntfs-3g_ntfsprogs/ntfs-3g_ntfsprogs/2012.1.15/tmp/ntfs-3g_ntfsprogs-2012.1.15'
make[2]: Leaving directory `/home/ken/vectorlinux/packaging/pactions/ntfs-3g_ntfsprogs/ntfs-3g_ntfsprogs/2012.1.15/tmp/ntfs-3g_ntfsprogs-2012.1.15'
make[1]: Leaving directory `/home/ken/vectorlinux/packaging/pactions/ntfs-3g_ntfsprogs/ntfs-3g_ntfsprogs/2012.1.15/tmp/ntfs-3g_ntfsprogs-2012.1.15'
Making install in include
make[1]: Entering directory `/home/ken/vectorlinux/packaging/pactions/ntfs-3g_ntfsprogs/ntfs-3g_ntfsprogs/2012.1.15/tmp/ntfs-3g_ntfsprogs-2012.1.15/include'
Making install in ntfs-3g
make[2]: Entering directory `/home/ken/vectorlinux/packaging/pactions/ntfs-3g_ntfsprogs/ntfs-3g_ntfsprogs/2012.1.15/tmp/ntfs-3g_ntfsprogs-2012.1.15/include/ntfs-3g'
make[3]: Entering directory `/home/ken/vectorlinux/packaging/pactions/ntfs-3g_ntfsprogs/ntfs-3g_ntfsprogs/2012.1.15/tmp/ntfs-3g_ntfsprogs-2012.1.15/include/ntfs-3g'
make[3]: Nothing to be done for `install-exec-am'.
test -z "/usr/include/ntfs-3g" || /bin/mkdir -p "/home/ken/vectorlinux/packaging/pactions/ntfs-3g_ntfsprogs/ntfs-3g_ntfsprogs/2012.1.15/tmp/package-ntfs-3g_ntfsprogs/usr/include/ntfs-3g"
 /bin/ginstall -c -m 644 'acls.h' '/home/ken/vectorlinux/packaging/pactions/ntfs-3g_ntfsprogs/ntfs-3g_ntfsprogs/2012.1.15/tmp/package-ntfs-3g_ntfsprogs/usr/include/ntfs-3g/acls.h'
 /bin/ginstall -c -m 644 'attrib.h' '/home/ken/vectorlinux/packaging/pactions/ntfs-3g_ntfsprogs/ntfs-3g_ntfsprogs/2012.1.15/tmp/package-ntfs-3g_ntfsprogs/usr/include/ntfs-3g/attrib.h'
 /bin/ginstall -c -m 644 'attrlist.h' '/home/ken/vectorlinux/packaging/pactions/ntfs-3g_ntfsprogs/ntfs-3g_ntfsprogs/2012.1.15/tmp/package-ntfs-3g_ntfsprogs/usr/include/ntfs-3g/attrlist.h'
 /bin/ginstall -c -m 644 'bitmap.h' '/home/ken/vectorlinux/packaging/pactions/ntfs-3g_ntfsprogs/ntfs-3g_ntfsprogs/2012.1.15/tmp/package-ntfs-3g_ntfsprogs/usr/include/ntfs-3g/bitmap.h'
 /bin/ginstall -c -m 644 'bootsect.h' '/home/ken/vectorlinux/packaging/pactions/ntfs-3g_ntfsprogs/ntfs-3g_ntfsprogs/2012.1.15/tmp/package-ntfs-3g_ntfsprogs/usr/include/ntfs-3g/bootsect.h'
 /bin/ginstall -c -m 644 'cache.h' '/home/ken/vectorlinux/packaging/pactions/ntfs-3g_ntfsprogs/ntfs-3g_ntfsprogs/2012.1.15/tmp/package-ntfs-3g_ntfsprogs/usr/include/ntfs-3g/cache.h'
 /bin/ginstall -c -m 644 'collate.h' '/home/ken/vectorlinux/packaging/pactions/ntfs-3g_ntfsprogs/ntfs-3g_ntfsprogs/2012.1.15/tmp/package-ntfs-3g_ntfsprogs/usr/include/ntfs-3g/collate.h'
 /bin/ginstall -c -m 644 'compat.h' '/home/ken/vectorlinux/packaging/pactions/ntfs-3g_ntfsprogs/ntfs-3g_ntfsprogs/2012.1.15/tmp/package-ntfs-3g_ntfsprogs/usr/include/ntfs-3g/compat.h'
 /bin/ginstall -c -m 644 'compress.h' '/home/ken/vectorlinux/packaging/pactions/ntfs-3g_ntfsprogs/ntfs-3g_ntfsprogs/2012.1.15/tmp/package-ntfs-3g_ntfsprogs/usr/include/ntfs-3g/compress.h'
 /bin/ginstall -c -m 644 'debug.h' '/home/ken/vectorlinux/packaging/pactions/ntfs-3g_ntfsprogs/ntfs-3g_ntfsprogs/2012.1.15/tmp/package-ntfs-3g_ntfsprogs/usr/include/ntfs-3g/debug.h'
 /bin/ginstall -c -m 644 'device.h' '/home/ken/vectorlinux/packaging/pactions/ntfs-3g_ntfsprogs/ntfs-3g_ntfsprogs/2012.1.15/tmp/package-ntfs-3g_ntfsprogs/usr/include/ntfs-3g/device.h'
 /bin/ginstall -c -m 644 'device_io.h' '/home/ken/vectorlinux/packaging/pactions/ntfs-3g_ntfsprogs/ntfs-3g_ntfsprogs/2012.1.15/tmp/package-ntfs-3g_ntfsprogs/usr/include/ntfs-3g/device_io.h'
 /bin/ginstall -c -m 644 'dir.h' '/home/ken/vectorlinux/packaging/pactions/ntfs-3g_ntfsprogs/ntfs-3g_ntfsprogs/2012.1.15/tmp/package-ntfs-3g_ntfsprogs/usr/include/ntfs-3g/dir.h'
 /bin/ginstall -c -m 644 'efs.h' '/home/ken/vectorlinux/packaging/pactions/ntfs-3g_ntfsprogs/ntfs-3g_ntfsprogs/2012.1.15/tmp/package-ntfs-3g_ntfsprogs/usr/include/ntfs-3g/efs.h'
 /bin/ginstall -c -m 644 'endians.h' '/home/ken/vectorlinux/packaging/pactions/ntfs-3g_ntfsprogs/ntfs-3g_ntfsprogs/2012.1.15/tmp/package-ntfs-3g_ntfsprogs/usr/include/ntfs-3g/endians.h'
 /bin/ginstall -c -m 644 'index.h' '/home/ken/vectorlinux/packaging/pactions/ntfs-3g_ntfsprogs/ntfs-3g_ntfsprogs/2012.1.15/tmp/package-ntfs-3g_ntfsprogs/usr/include/ntfs-3g/index.h'
 /bin/ginstall -c -m 644 'inode.h' '/home/ken/vectorlinux/packaging/pactions/ntfs-3g_ntfsprogs/ntfs-3g_ntfsprogs/2012.1.15/tmp/package-ntfs-3g_ntfsprogs/usr/include/ntfs-3g/inode.h'
 /bin/ginstall -c -m 644 'layout.h' '/home/ken/vectorlinux/packaging/pactions/ntfs-3g_ntfsprogs/ntfs-3g_ntfsprogs/2012.1.15/tmp/package-ntfs-3g_ntfsprogs/usr/include/ntfs-3g/layout.h'
 /bin/ginstall -c -m 644 'lcnalloc.h' '/home/ken/vectorlinux/packaging/pactions/ntfs-3g_ntfsprogs/ntfs-3g_ntfsprogs/2012.1.15/tmp/package-ntfs-3g_ntfsprogs/usr/include/ntfs-3g/lcnalloc.h'
 /bin/ginstall -c -m 644 'logfile.h' '/home/ken/vectorlinux/packaging/pactions/ntfs-3g_ntfsprogs/ntfs-3g_ntfsprogs/2012.1.15/tmp/package-ntfs-3g_ntfsprogs/usr/include/ntfs-3g/logfile.h'
 /bin/ginstall -c -m 644 'logging.h' '/home/ken/vectorlinux/packaging/pactions/ntfs-3g_ntfsprogs/ntfs-3g_ntfsprogs/2012.1.15/tmp/package-ntfs-3g_ntfsprogs/usr/include/ntfs-3g/logging.h'
 /bin/ginstall -c -m 644 'mft.h' '/home/ken/vectorlinux/packaging/pactions/ntfs-3g_ntfsprogs/ntfs-3g_ntfsprogs/2012.1.15/tmp/package-ntfs-3g_ntfsprogs/usr/include/ntfs-3g/mft.h'
 /bin/ginstall -c -m 644 'misc.h' '/home/ken/vectorlinux/packaging/pactions/ntfs-3g_ntfsprogs/ntfs-3g_ntfsprogs/2012.1.15/tmp/package-ntfs-3g_ntfsprogs/usr/include/ntfs-3g/misc.h'
 /bin/ginstall -c -m 644 'mst.h' '/home/ken/vectorlinux/packaging/pactions/ntfs-3g_ntfsprogs/ntfs-3g_ntfsprogs/2012.1.15/tmp/package-ntfs-3g_ntfsprogs/usr/include/ntfs-3g/mst.h'
 /bin/ginstall -c -m 644 'ntfstime.h' '/home/ken/vectorlinux/packaging/pactions/ntfs-3g_ntfsprogs/ntfs-3g_ntfsprogs/2012.1.15/tmp/package-ntfs-3g_ntfsprogs/usr/include/ntfs-3g/ntfstime.h'
 /bin/ginstall -c -m 644 'object_id.h' '/home/ken/vectorlinux/packaging/pactions/ntfs-3g_ntfsprogs/ntfs-3g_ntfsprogs/2012.1.15/tmp/package-ntfs-3g_ntfsprogs/usr/include/ntfs-3g/object_id.h'
 /bin/ginstall -c -m 644 'param.h' '/home/ken/vectorlinux/packaging/pactions/ntfs-3g_ntfsprogs/ntfs-3g_ntfsprogs/2012.1.15/tmp/package-ntfs-3g_ntfsprogs/usr/include/ntfs-3g/param.h'
 /bin/ginstall -c -m 644 'realpath.h' '/home/ken/vectorlinux/packaging/pactions/ntfs-3g_ntfsprogs/ntfs-3g_ntfsprogs/2012.1.15/tmp/package-ntfs-3g_ntfsprogs/usr/include/ntfs-3g/realpath.h'
 /bin/ginstall -c -m 644 'reparse.h' '/home/ken/vectorlinux/packaging/pactions/ntfs-3g_ntfsprogs/ntfs-3g_ntfsprogs/2012.1.15/tmp/package-ntfs-3g_ntfsprogs/usr/include/ntfs-3g/reparse.h'
 /bin/ginstall -c -m 644 'runlist.h' '/home/ken/vectorlinux/packaging/pactions/ntfs-3g_ntfsprogs/ntfs-3g_ntfsprogs/2012.1.15/tmp/package-ntfs-3g_ntfsprogs/usr/include/ntfs-3g/runlist.h'
 /bin/ginstall -c -m 644 'security.h' '/home/ken/vectorlinux/packaging/pactions/ntfs-3g_ntfsprogs/ntfs-3g_ntfsprogs/2012.1.15/tmp/package-ntfs-3g_ntfsprogs/usr/include/ntfs-3g/security.h'
 /bin/ginstall -c -m 644 'support.h' '/home/ken/vectorlinux/packaging/pactions/ntfs-3g_ntfsprogs/ntfs-3g_ntfsprogs/2012.1.15/tmp/package-ntfs-3g_ntfsprogs/usr/include/ntfs-3g/support.h'
 /bin/ginstall -c -m 644 'types.h' '/home/ken/vectorlinux/packaging/pactions/ntfs-3g_ntfsprogs/ntfs-3g_ntfsprogs/2012.1.15/tmp/package-ntfs-3g_ntfsprogs/usr/include/ntfs-3g/types.h'
 /bin/ginstall -c -m 644 'unistr.h' '/home/ken/vectorlinux/packaging/pactions/ntfs-3g_ntfsprogs/ntfs-3g_ntfsprogs/2012.1.15/tmp/package-ntfs-3g_ntfsprogs/usr/include/ntfs-3g/unistr.h'
 /bin/ginstall -c -m 644 'volume.h' '/home/ken/vectorlinux/packaging/pactions/ntfs-3g_ntfsprogs/ntfs-3g_ntfsprogs/2012.1.15/tmp/package-ntfs-3g_ntfsprogs/usr/include/ntfs-3g/volume.h'
 /bin/ginstall -c -m 644 'xattrs.h' '/home/ken/vectorlinux/packaging/pactions/ntfs-3g_ntfsprogs/ntfs-3g_ntfsprogs/2012.1.15/tmp/package-ntfs-3g_ntfsprogs/usr/include/ntfs-3g/xattrs.h'
make[3]: Leaving directory `/home/ken/vectorlinux/packaging/pactions/ntfs-3g_ntfsprogs/ntfs-3g_ntfsprogs/2012.1.15/tmp/ntfs-3g_ntfsprogs-2012.1.15/include/ntfs-3g'
make[2]: Leaving directory `/home/ken/vectorlinux/packaging/pactions/ntfs-3g_ntfsprogs/ntfs-3g_ntfsprogs/2012.1.15/tmp/ntfs-3g_ntfsprogs-2012.1.15/include/ntfs-3g'
Making install in fuse-lite
make[2]: Entering directory `/home/ken/vectorlinux/packaging/pactions/ntfs-3g_ntfsprogs/ntfs-3g_ntfsprogs/2012.1.15/tmp/ntfs-3g_ntfsprogs-2012.1.15/include/fuse-lite'
make[3]: Entering directory `/home/ken/vectorlinux/packaging/pactions/ntfs-3g_ntfsprogs/ntfs-3g_ntfsprogs/2012.1.15/tmp/ntfs-3g_ntfsprogs-2012.1.15/include/fuse-lite'
make[3]: Nothing to be done for `install-exec-am'.
make[3]: Nothing to be done for `install-data-am'.
make[3]: Leaving directory `/home/ken/vectorlinux/packaging/pactions/ntfs-3g_ntfsprogs/ntfs-3g_ntfsprogs/2012.1.15/tmp/ntfs-3g_ntfsprogs-2012.1.15/include/fuse-lite'
make[2]: Leaving directory `/home/ken/vectorlinux/packaging/pactions/ntfs-3g_ntfsprogs/ntfs-3g_ntfsprogs/2012.1.15/tmp/ntfs-3g_ntfsprogs-2012.1.15/include/fuse-lite'
make[2]: Entering directory `/home/ken/vectorlinux/packaging/pactions/ntfs-3g_ntfsprogs/ntfs-3g_ntfsprogs/2012.1.15/tmp/ntfs-3g_ntfsprogs-2012.1.15/include'
make[3]: Entering directory `/home/ken/vectorlinux/packaging/pactions/ntfs-3g_ntfsprogs/ntfs-3g_ntfsprogs/2012.1.15/tmp/ntfs-3g_ntfsprogs-2012.1.15/include'
make[3]: Nothing to be done for `install-exec-am'.
make[3]: Nothing to be done for `install-data-am'.
make[3]: Leaving directory `/home/ken/vectorlinux/packaging/pactions/ntfs-3g_ntfsprogs/ntfs-3g_ntfsprogs/2012.1.15/tmp/ntfs-3g_ntfsprogs-2012.1.15/include'
make[2]: Leaving directory `/home/ken/vectorlinux/packaging/pactions/ntfs-3g_ntfsprogs/ntfs-3g_ntfsprogs/2012.1.15/tmp/ntfs-3g_ntfsprogs-2012.1.15/include'
make[1]: Leaving directory `/home/ken/vectorlinux/packaging/pactions/ntfs-3g_ntfsprogs/ntfs-3g_ntfsprogs/2012.1.15/tmp/ntfs-3g_ntfsprogs-2012.1.15/include'
Making install in libfuse-lite
make[1]: Entering directory `/home/ken/vectorlinux/packaging/pactions/ntfs-3g_ntfsprogs/ntfs-3g_ntfsprogs/2012.1.15/tmp/ntfs-3g_ntfsprogs-2012.1.15/libfuse-lite'
make[2]: Entering directory `/home/ken/vectorlinux/packaging/pactions/ntfs-3g_ntfsprogs/ntfs-3g_ntfsprogs/2012.1.15/tmp/ntfs-3g_ntfsprogs-2012.1.15/libfuse-lite'
make[2]: Nothing to be done for `install-exec-am'.
make[2]: Nothing to be done for `install-data-am'.
make[2]: Leaving directory `/home/ken/vectorlinux/packaging/pactions/ntfs-3g_ntfsprogs/ntfs-3g_ntfsprogs/2012.1.15/tmp/ntfs-3g_ntfsprogs-2012.1.15/libfuse-lite'
make[1]: Leaving directory `/home/ken/vectorlinux/packaging/pactions/ntfs-3g_ntfsprogs/ntfs-3g_ntfsprogs/2012.1.15/tmp/ntfs-3g_ntfsprogs-2012.1.15/libfuse-lite'
Making install in libntfs-3g
make[1]: Entering directory `/home/ken/vectorlinux/packaging/pactions/ntfs-3g_ntfsprogs/ntfs-3g_ntfsprogs/2012.1.15/tmp/ntfs-3g_ntfsprogs-2012.1.15/libntfs-3g'
make[2]: Entering directory `/home/ken/vectorlinux/packaging/pactions/ntfs-3g_ntfsprogs/ntfs-3g_ntfsprogs/2012.1.15/tmp/ntfs-3g_ntfsprogs-2012.1.15/libntfs-3g'
test -z "/usr/lib" || /bin/mkdir -p "/home/ken/vectorlinux/packaging/pactions/ntfs-3g_ntfsprogs/ntfs-3g_ntfsprogs/2012.1.15/tmp/package-ntfs-3g_ntfsprogs/usr/lib"
 /bin/sh ../libtool   --mode=install /bin/ginstall -c  'libntfs-3g.la' '/home/ken/vectorlinux/packaging/pactions/ntfs-3g_ntfsprogs/ntfs-3g_ntfsprogs/2012.1.15/tmp/package-ntfs-3g_ntfsprogs/usr/lib/libntfs-3g.la'
/bin/ginstall -c .libs/libntfs-3g.so.83.0.0 /home/ken/vectorlinux/packaging/pactions/ntfs-3g_ntfsprogs/ntfs-3g_ntfsprogs/2012.1.15/tmp/package-ntfs-3g_ntfsprogs/usr/lib/libntfs-3g.so.83.0.0
(cd /home/ken/vectorlinux/packaging/pactions/ntfs-3g_ntfsprogs/ntfs-3g_ntfsprogs/2012.1.15/tmp/package-ntfs-3g_ntfsprogs/usr/lib && { ln -s -f libntfs-3g.so.83.0.0 libntfs-3g.so.83 || { rm -f libntfs-3g.so.83 && ln -s libntfs-3g.so.83.0.0 libntfs-3g.so.83; }; })
(cd /home/ken/vectorlinux/packaging/pactions/ntfs-3g_ntfsprogs/ntfs-3g_ntfsprogs/2012.1.15/tmp/package-ntfs-3g_ntfsprogs/usr/lib && { ln -s -f libntfs-3g.so.83.0.0 libntfs-3g.so || { rm -f libntfs-3g.so && ln -s libntfs-3g.so.83.0.0 libntfs-3g.so; }; })
/bin/ginstall -c .libs/libntfs-3g.lai /home/ken/vectorlinux/packaging/pactions/ntfs-3g_ntfsprogs/ntfs-3g_ntfsprogs/2012.1.15/tmp/package-ntfs-3g_ntfsprogs/usr/lib/libntfs-3g.la
make  install-exec-hook
make[3]: Entering directory `/home/ken/vectorlinux/packaging/pactions/ntfs-3g_ntfsprogs/ntfs-3g_ntfsprogs/2012.1.15/tmp/ntfs-3g_ntfsprogs-2012.1.15/libntfs-3g'
test -z "/lib" || /bin/mkdir -p "/home/ken/vectorlinux/packaging/pactions/ntfs-3g_ntfsprogs/ntfs-3g_ntfsprogs/2012.1.15/tmp/package-ntfs-3g_ntfsprogs/lib"
if [ ! "/lib" -ef "/usr/lib" ]; then \
	/bin/mv -f "/home/ken/vectorlinux/packaging/pactions/ntfs-3g_ntfsprogs/ntfs-3g_ntfsprogs/2012.1.15/tmp/package-ntfs-3g_ntfsprogs//usr/lib"/libntfs-3g.so* "/home/ken/vectorlinux/packaging/pactions/ntfs-3g_ntfsprogs/ntfs-3g_ntfsprogs/2012.1.15/tmp/package-ntfs-3g_ntfsprogs//lib";  \
fi
if [ ! "/lib" -ef "/usr/lib" ]; then \
	ln -s "/lib/libntfs-3g.so" "/home/ken/vectorlinux/packaging/pactions/ntfs-3g_ntfsprogs/ntfs-3g_ntfsprogs/2012.1.15/tmp/package-ntfs-3g_ntfsprogs//usr/lib/libntfs-3g.so"; \
fi
make[3]: Leaving directory `/home/ken/vectorlinux/packaging/pactions/ntfs-3g_ntfsprogs/ntfs-3g_ntfsprogs/2012.1.15/tmp/ntfs-3g_ntfsprogs-2012.1.15/libntfs-3g'
test -z "/usr/lib/pkgconfig" || /bin/mkdir -p "/home/ken/vectorlinux/packaging/pactions/ntfs-3g_ntfsprogs/ntfs-3g_ntfsprogs/2012.1.15/tmp/package-ntfs-3g_ntfsprogs/usr/lib/pkgconfig"
 /bin/ginstall -c -m 644 'libntfs-3g.pc' '/home/ken/vectorlinux/packaging/pactions/ntfs-3g_ntfsprogs/ntfs-3g_ntfsprogs/2012.1.15/tmp/package-ntfs-3g_ntfsprogs/usr/lib/pkgconfig/libntfs-3g.pc'
test -z "/lib" || /bin/mkdir -p "/home/ken/vectorlinux/packaging/pactions/ntfs-3g_ntfsprogs/ntfs-3g_ntfsprogs/2012.1.15/tmp/package-ntfs-3g_ntfsprogs/lib"
make[2]: Leaving directory `/home/ken/vectorlinux/packaging/pactions/ntfs-3g_ntfsprogs/ntfs-3g_ntfsprogs/2012.1.15/tmp/ntfs-3g_ntfsprogs-2012.1.15/libntfs-3g'
make[1]: Leaving directory `/home/ken/vectorlinux/packaging/pactions/ntfs-3g_ntfsprogs/ntfs-3g_ntfsprogs/2012.1.15/tmp/ntfs-3g_ntfsprogs-2012.1.15/libntfs-3g'
Making install in ntfsprogs
make[1]: Entering directory `/home/ken/vectorlinux/packaging/pactions/ntfs-3g_ntfsprogs/ntfs-3g_ntfsprogs/2012.1.15/tmp/ntfs-3g_ntfsprogs-2012.1.15/ntfsprogs'
make[2]: Entering directory `/home/ken/vectorlinux/packaging/pactions/ntfs-3g_ntfsprogs/ntfs-3g_ntfsprogs/2012.1.15/tmp/ntfs-3g_ntfsprogs-2012.1.15/ntfsprogs'
test -z "/usr/bin" || /bin/mkdir -p "/home/ken/vectorlinux/packaging/pactions/ntfs-3g_ntfsprogs/ntfs-3g_ntfsprogs/2012.1.15/tmp/package-ntfs-3g_ntfsprogs/usr/bin"
  /bin/sh ../libtool   --mode=install /bin/ginstall -c 'ntfsfix' '/home/ken/vectorlinux/packaging/pactions/ntfs-3g_ntfsprogs/ntfs-3g_ntfsprogs/2012.1.15/tmp/package-ntfs-3g_ntfsprogs/usr/bin/ntfsfix'
/bin/ginstall -c .libs/ntfsfix /home/ken/vectorlinux/packaging/pactions/ntfs-3g_ntfsprogs/ntfs-3g_ntfsprogs/2012.1.15/tmp/package-ntfs-3g_ntfsprogs/usr/bin/ntfsfix
  /bin/sh ../libtool   --mode=install /bin/ginstall -c 'ntfsinfo' '/home/ken/vectorlinux/packaging/pactions/ntfs-3g_ntfsprogs/ntfs-3g_ntfsprogs/2012.1.15/tmp/package-ntfs-3g_ntfsprogs/usr/bin/ntfsinfo'
/bin/ginstall -c .libs/ntfsinfo /home/ken/vectorlinux/packaging/pactions/ntfs-3g_ntfsprogs/ntfs-3g_ntfsprogs/2012.1.15/tmp/package-ntfs-3g_ntfsprogs/usr/bin/ntfsinfo
  /bin/sh ../libtool   --mode=install /bin/ginstall -c 'ntfscluster' '/home/ken/vectorlinux/packaging/pactions/ntfs-3g_ntfsprogs/ntfs-3g_ntfsprogs/2012.1.15/tmp/package-ntfs-3g_ntfsprogs/usr/bin/ntfscluster'
/bin/ginstall -c .libs/ntfscluster /home/ken/vectorlinux/packaging/pactions/ntfs-3g_ntfsprogs/ntfs-3g_ntfsprogs/2012.1.15/tmp/package-ntfs-3g_ntfsprogs/usr/bin/ntfscluster
  /bin/sh ../libtool   --mode=install /bin/ginstall -c 'ntfsls' '/home/ken/vectorlinux/packaging/pactions/ntfs-3g_ntfsprogs/ntfs-3g_ntfsprogs/2012.1.15/tmp/package-ntfs-3g_ntfsprogs/usr/bin/ntfsls'
/bin/ginstall -c .libs/ntfsls /home/ken/vectorlinux/packaging/pactions/ntfs-3g_ntfsprogs/ntfs-3g_ntfsprogs/2012.1.15/tmp/package-ntfs-3g_ntfsprogs/usr/bin/ntfsls
  /bin/sh ../libtool   --mode=install /bin/ginstall -c 'ntfscat' '/home/ken/vectorlinux/packaging/pactions/ntfs-3g_ntfsprogs/ntfs-3g_ntfsprogs/2012.1.15/tmp/package-ntfs-3g_ntfsprogs/usr/bin/ntfscat'
/bin/ginstall -c .libs/ntfscat /home/ken/vectorlinux/packaging/pactions/ntfs-3g_ntfsprogs/ntfs-3g_ntfsprogs/2012.1.15/tmp/package-ntfs-3g_ntfsprogs/usr/bin/ntfscat
  /bin/sh ../libtool   --mode=install /bin/ginstall -c 'ntfscmp' '/home/ken/vectorlinux/packaging/pactions/ntfs-3g_ntfsprogs/ntfs-3g_ntfsprogs/2012.1.15/tmp/package-ntfs-3g_ntfsprogs/usr/bin/ntfscmp'
/bin/ginstall -c .libs/ntfscmp /home/ken/vectorlinux/packaging/pactions/ntfs-3g_ntfsprogs/ntfs-3g_ntfsprogs/2012.1.15/tmp/package-ntfs-3g_ntfsprogs/usr/bin/ntfscmp
test -z "/usr/sbin" || /bin/mkdir -p "/home/ken/vectorlinux/packaging/pactions/ntfs-3g_ntfsprogs/ntfs-3g_ntfsprogs/2012.1.15/tmp/package-ntfs-3g_ntfsprogs/usr/sbin"
  /bin/sh ../libtool   --mode=install /bin/ginstall -c 'mkntfs' '/home/ken/vectorlinux/packaging/pactions/ntfs-3g_ntfsprogs/ntfs-3g_ntfsprogs/2012.1.15/tmp/package-ntfs-3g_ntfsprogs/usr/sbin/mkntfs'
/bin/ginstall -c .libs/mkntfs /home/ken/vectorlinux/packaging/pactions/ntfs-3g_ntfsprogs/ntfs-3g_ntfsprogs/2012.1.15/tmp/package-ntfs-3g_ntfsprogs/usr/sbin/mkntfs
  /bin/sh ../libtool   --mode=install /bin/ginstall -c 'ntfslabel' '/home/ken/vectorlinux/packaging/pactions/ntfs-3g_ntfsprogs/ntfs-3g_ntfsprogs/2012.1.15/tmp/package-ntfs-3g_ntfsprogs/usr/sbin/ntfslabel'
/bin/ginstall -c .libs/ntfslabel /home/ken/vectorlinux/packaging/pactions/ntfs-3g_ntfsprogs/ntfs-3g_ntfsprogs/2012.1.15/tmp/package-ntfs-3g_ntfsprogs/usr/sbin/ntfslabel
  /bin/sh ../libtool   --mode=install /bin/ginstall -c 'ntfsundelete' '/home/ken/vectorlinux/packaging/pactions/ntfs-3g_ntfsprogs/ntfs-3g_ntfsprogs/2012.1.15/tmp/package-ntfs-3g_ntfsprogs/usr/sbin/ntfsundelete'
/bin/ginstall -c .libs/ntfsundelete /home/ken/vectorlinux/packaging/pactions/ntfs-3g_ntfsprogs/ntfs-3g_ntfsprogs/2012.1.15/tmp/package-ntfs-3g_ntfsprogs/usr/sbin/ntfsundelete
  /bin/sh ../libtool   --mode=install /bin/ginstall -c 'ntfsresize' '/home/ken/vectorlinux/packaging/pactions/ntfs-3g_ntfsprogs/ntfs-3g_ntfsprogs/2012.1.15/tmp/package-ntfs-3g_ntfsprogs/usr/sbin/ntfsresize'
/bin/ginstall -c .libs/ntfsresize /home/ken/vectorlinux/packaging/pactions/ntfs-3g_ntfsprogs/ntfs-3g_ntfsprogs/2012.1.15/tmp/package-ntfs-3g_ntfsprogs/usr/sbin/ntfsresize
  /bin/sh ../libtool   --mode=install /bin/ginstall -c 'ntfsclone' '/home/ken/vectorlinux/packaging/pactions/ntfs-3g_ntfsprogs/ntfs-3g_ntfsprogs/2012.1.15/tmp/package-ntfs-3g_ntfsprogs/usr/sbin/ntfsclone'
/bin/ginstall -c .libs/ntfsclone /home/ken/vectorlinux/packaging/pactions/ntfs-3g_ntfsprogs/ntfs-3g_ntfsprogs/2012.1.15/tmp/package-ntfs-3g_ntfsprogs/usr/sbin/ntfsclone
  /bin/sh ../libtool   --mode=install /bin/ginstall -c 'ntfscp' '/home/ken/vectorlinux/packaging/pactions/ntfs-3g_ntfsprogs/ntfs-3g_ntfsprogs/2012.1.15/tmp/package-ntfs-3g_ntfsprogs/usr/sbin/ntfscp'
/bin/ginstall -c .libs/ntfscp /home/ken/vectorlinux/packaging/pactions/ntfs-3g_ntfsprogs/ntfs-3g_ntfsprogs/2012.1.15/tmp/package-ntfs-3g_ntfsprogs/usr/sbin/ntfscp
make  install-exec-hook
make[3]: Entering directory `/home/ken/vectorlinux/packaging/pactions/ntfs-3g_ntfsprogs/ntfs-3g_ntfsprogs/2012.1.15/tmp/ntfs-3g_ntfsprogs-2012.1.15/ntfsprogs'
/bin/ginstall -c -d /home/ken/vectorlinux/packaging/pactions/ntfs-3g_ntfsprogs/ntfs-3g_ntfsprogs/2012.1.15/tmp/package-ntfs-3g_ntfsprogs/sbin
ln -s -f /usr/sbin/mkntfs /home/ken/vectorlinux/packaging/pactions/ntfs-3g_ntfsprogs/ntfs-3g_ntfsprogs/2012.1.15/tmp/package-ntfs-3g_ntfsprogs/sbin/mkfs.ntfs
make[3]: Leaving directory `/home/ken/vectorlinux/packaging/pactions/ntfs-3g_ntfsprogs/ntfs-3g_ntfsprogs/2012.1.15/tmp/ntfs-3g_ntfsprogs-2012.1.15/ntfsprogs'
test -z "/usr/man/man8" || /bin/mkdir -p "/home/ken/vectorlinux/packaging/pactions/ntfs-3g_ntfsprogs/ntfs-3g_ntfsprogs/2012.1.15/tmp/package-ntfs-3g_ntfsprogs/usr/man/man8"
 /bin/ginstall -c -m 644 './mkntfs.8' '/home/ken/vectorlinux/packaging/pactions/ntfs-3g_ntfsprogs/ntfs-3g_ntfsprogs/2012.1.15/tmp/package-ntfs-3g_ntfsprogs/usr/man/man8/mkntfs.8'
 /bin/ginstall -c -m 644 './ntfsfix.8' '/home/ken/vectorlinux/packaging/pactions/ntfs-3g_ntfsprogs/ntfs-3g_ntfsprogs/2012.1.15/tmp/package-ntfs-3g_ntfsprogs/usr/man/man8/ntfsfix.8'
 /bin/ginstall -c -m 644 './ntfslabel.8' '/home/ken/vectorlinux/packaging/pactions/ntfs-3g_ntfsprogs/ntfs-3g_ntfsprogs/2012.1.15/tmp/package-ntfs-3g_ntfsprogs/usr/man/man8/ntfslabel.8'
 /bin/ginstall -c -m 644 './ntfsinfo.8' '/home/ken/vectorlinux/packaging/pactions/ntfs-3g_ntfsprogs/ntfs-3g_ntfsprogs/2012.1.15/tmp/package-ntfs-3g_ntfsprogs/usr/man/man8/ntfsinfo.8'
 /bin/ginstall -c -m 644 './ntfsundelete.8' '/home/ken/vectorlinux/packaging/pactions/ntfs-3g_ntfsprogs/ntfs-3g_ntfsprogs/2012.1.15/tmp/package-ntfs-3g_ntfsprogs/usr/man/man8/ntfsundelete.8'
 /bin/ginstall -c -m 644 './ntfsresize.8' '/home/ken/vectorlinux/packaging/pactions/ntfs-3g_ntfsprogs/ntfs-3g_ntfsprogs/2012.1.15/tmp/package-ntfs-3g_ntfsprogs/usr/man/man8/ntfsresize.8'
 /bin/ginstall -c -m 644 './ntfsprogs.8' '/home/ken/vectorlinux/packaging/pactions/ntfs-3g_ntfsprogs/ntfs-3g_ntfsprogs/2012.1.15/tmp/package-ntfs-3g_ntfsprogs/usr/man/man8/ntfsprogs.8'
 /bin/ginstall -c -m 644 './ntfsls.8' '/home/ken/vectorlinux/packaging/pactions/ntfs-3g_ntfsprogs/ntfs-3g_ntfsprogs/2012.1.15/tmp/package-ntfs-3g_ntfsprogs/usr/man/man8/ntfsls.8'
 /bin/ginstall -c -m 644 './ntfsclone.8' '/home/ken/vectorlinux/packaging/pactions/ntfs-3g_ntfsprogs/ntfs-3g_ntfsprogs/2012.1.15/tmp/package-ntfs-3g_ntfsprogs/usr/man/man8/ntfsclone.8'
 /bin/ginstall -c -m 644 './ntfscluster.8' '/home/ken/vectorlinux/packaging/pactions/ntfs-3g_ntfsprogs/ntfs-3g_ntfsprogs/2012.1.15/tmp/package-ntfs-3g_ntfsprogs/usr/man/man8/ntfscluster.8'
 /bin/ginstall -c -m 644 './ntfscat.8' '/home/ken/vectorlinux/packaging/pactions/ntfs-3g_ntfsprogs/ntfs-3g_ntfsprogs/2012.1.15/tmp/package-ntfs-3g_ntfsprogs/usr/man/man8/ntfscat.8'
 /bin/ginstall -c -m 644 './ntfscp.8' '/home/ken/vectorlinux/packaging/pactions/ntfs-3g_ntfsprogs/ntfs-3g_ntfsprogs/2012.1.15/tmp/package-ntfs-3g_ntfsprogs/usr/man/man8/ntfscp.8'
 /bin/ginstall -c -m 644 './ntfscmp.8' '/home/ken/vectorlinux/packaging/pactions/ntfs-3g_ntfsprogs/ntfs-3g_ntfsprogs/2012.1.15/tmp/package-ntfs-3g_ntfsprogs/usr/man/man8/ntfscmp.8'
make  install-data-hook
make[3]: Entering directory `/home/ken/vectorlinux/packaging/pactions/ntfs-3g_ntfsprogs/ntfs-3g_ntfsprogs/2012.1.15/tmp/ntfs-3g_ntfsprogs-2012.1.15/ntfsprogs'
/bin/ginstall -c -d /home/ken/vectorlinux/packaging/pactions/ntfs-3g_ntfsprogs/ntfs-3g_ntfsprogs/2012.1.15/tmp/package-ntfs-3g_ntfsprogs/usr/man/man8
ln -s -f mkntfs.8 /home/ken/vectorlinux/packaging/pactions/ntfs-3g_ntfsprogs/ntfs-3g_ntfsprogs/2012.1.15/tmp/package-ntfs-3g_ntfsprogs/usr/man/man8/mkfs.ntfs.8
make[3]: Leaving directory `/home/ken/vectorlinux/packaging/pactions/ntfs-3g_ntfsprogs/ntfs-3g_ntfsprogs/2012.1.15/tmp/ntfs-3g_ntfsprogs-2012.1.15/ntfsprogs'
make[2]: Leaving directory `/home/ken/vectorlinux/packaging/pactions/ntfs-3g_ntfsprogs/ntfs-3g_ntfsprogs/2012.1.15/tmp/ntfs-3g_ntfsprogs-2012.1.15/ntfsprogs'
make[1]: Leaving directory `/home/ken/vectorlinux/packaging/pactions/ntfs-3g_ntfsprogs/ntfs-3g_ntfsprogs/2012.1.15/tmp/ntfs-3g_ntfsprogs-2012.1.15/ntfsprogs'
Making install in src
make[1]: Entering directory `/home/ken/vectorlinux/packaging/pactions/ntfs-3g_ntfsprogs/ntfs-3g_ntfsprogs/2012.1.15/tmp/ntfs-3g_ntfsprogs-2012.1.15/src'
make[2]: Entering directory `/home/ken/vectorlinux/packaging/pactions/ntfs-3g_ntfsprogs/ntfs-3g_ntfsprogs/2012.1.15/tmp/ntfs-3g_ntfsprogs-2012.1.15/src'
test -z "/usr/bin" || /bin/mkdir -p "/home/ken/vectorlinux/packaging/pactions/ntfs-3g_ntfsprogs/ntfs-3g_ntfsprogs/2012.1.15/tmp/package-ntfs-3g_ntfsprogs/usr/bin"
  /bin/sh ../libtool   --mode=install /bin/ginstall -c 'ntfs-3g.probe' '/home/ken/vectorlinux/packaging/pactions/ntfs-3g_ntfsprogs/ntfs-3g_ntfsprogs/2012.1.15/tmp/package-ntfs-3g_ntfsprogs/usr/bin/ntfs-3g.probe'
/bin/ginstall -c .libs/ntfs-3g.probe /home/ken/vectorlinux/packaging/pactions/ntfs-3g_ntfsprogs/ntfs-3g_ntfsprogs/2012.1.15/tmp/package-ntfs-3g_ntfsprogs/usr/bin/ntfs-3g.probe
  /bin/sh ../libtool   --mode=install /bin/ginstall -c 'ntfs-3g.usermap' '/home/ken/vectorlinux/packaging/pactions/ntfs-3g_ntfsprogs/ntfs-3g_ntfsprogs/2012.1.15/tmp/package-ntfs-3g_ntfsprogs/usr/bin/ntfs-3g.usermap'
/bin/ginstall -c .libs/ntfs-3g.usermap /home/ken/vectorlinux/packaging/pactions/ntfs-3g_ntfsprogs/ntfs-3g_ntfsprogs/2012.1.15/tmp/package-ntfs-3g_ntfsprogs/usr/bin/ntfs-3g.usermap
  /bin/sh ../libtool   --mode=install /bin/ginstall -c 'ntfs-3g.secaudit' '/home/ken/vectorlinux/packaging/pactions/ntfs-3g_ntfsprogs/ntfs-3g_ntfsprogs/2012.1.15/tmp/package-ntfs-3g_ntfsprogs/usr/bin/ntfs-3g.secaudit'
/bin/ginstall -c .libs/ntfs-3g.secaudit /home/ken/vectorlinux/packaging/pactions/ntfs-3g_ntfsprogs/ntfs-3g_ntfsprogs/2012.1.15/tmp/package-ntfs-3g_ntfsprogs/usr/bin/ntfs-3g.secaudit
test -z "/bin" || /bin/mkdir -p "/home/ken/vectorlinux/packaging/pactions/ntfs-3g_ntfsprogs/ntfs-3g_ntfsprogs/2012.1.15/tmp/package-ntfs-3g_ntfsprogs/bin"
  /bin/sh ../libtool   --mode=install /bin/ginstall -c 'ntfs-3g' '/home/ken/vectorlinux/packaging/pactions/ntfs-3g_ntfsprogs/ntfs-3g_ntfsprogs/2012.1.15/tmp/package-ntfs-3g_ntfsprogs/bin/ntfs-3g'
/bin/ginstall -c .libs/ntfs-3g /home/ken/vectorlinux/packaging/pactions/ntfs-3g_ntfsprogs/ntfs-3g_ntfsprogs/2012.1.15/tmp/package-ntfs-3g_ntfsprogs/bin/ntfs-3g
  /bin/sh ../libtool   --mode=install /bin/ginstall -c 'lowntfs-3g' '/home/ken/vectorlinux/packaging/pactions/ntfs-3g_ntfsprogs/ntfs-3g_ntfsprogs/2012.1.15/tmp/package-ntfs-3g_ntfsprogs/bin/lowntfs-3g'
/bin/ginstall -c .libs/lowntfs-3g /home/ken/vectorlinux/packaging/pactions/ntfs-3g_ntfsprogs/ntfs-3g_ntfsprogs/2012.1.15/tmp/package-ntfs-3g_ntfsprogs/bin/lowntfs-3g
/bin/mkdir -p "/home/ken/vectorlinux/packaging/pactions/ntfs-3g_ntfsprogs/ntfs-3g_ntfsprogs/2012.1.15/tmp/package-ntfs-3g_ntfsprogs/sbin"
ln -s -f "/bin/ntfs-3g" "/home/ken/vectorlinux/packaging/pactions/ntfs-3g_ntfsprogs/ntfs-3g_ntfsprogs/2012.1.15/tmp/package-ntfs-3g_ntfsprogs/sbin/mount.ntfs-3g"
ln -s -f "/bin/lowntfs-3g" "/home/ken/vectorlinux/packaging/pactions/ntfs-3g_ntfsprogs/ntfs-3g_ntfsprogs/2012.1.15/tmp/package-ntfs-3g_ntfsprogs/sbin/mount.lowntfs-3g"
make  install-exec-hook
make[3]: Entering directory `/home/ken/vectorlinux/packaging/pactions/ntfs-3g_ntfsprogs/ntfs-3g_ntfsprogs/2012.1.15/tmp/ntfs-3g_ntfsprogs-2012.1.15/src'
/sbin/ldconfig
make[3]: Leaving directory `/home/ken/vectorlinux/packaging/pactions/ntfs-3g_ntfsprogs/ntfs-3g_ntfsprogs/2012.1.15/tmp/ntfs-3g_ntfsprogs-2012.1.15/src'
test -z "/usr/man/man8" || /bin/mkdir -p "/home/ken/vectorlinux/packaging/pactions/ntfs-3g_ntfsprogs/ntfs-3g_ntfsprogs/2012.1.15/tmp/package-ntfs-3g_ntfsprogs/usr/man/man8"
 /bin/ginstall -c -m 644 './ntfs-3g.8' '/home/ken/vectorlinux/packaging/pactions/ntfs-3g_ntfsprogs/ntfs-3g_ntfsprogs/2012.1.15/tmp/package-ntfs-3g_ntfsprogs/usr/man/man8/ntfs-3g.8'
 /bin/ginstall -c -m 644 './ntfs-3g.probe.8' '/home/ken/vectorlinux/packaging/pactions/ntfs-3g_ntfsprogs/ntfs-3g_ntfsprogs/2012.1.15/tmp/package-ntfs-3g_ntfsprogs/usr/man/man8/ntfs-3g.probe.8'
 /bin/ginstall -c -m 644 './ntfs-3g.usermap.8' '/home/ken/vectorlinux/packaging/pactions/ntfs-3g_ntfsprogs/ntfs-3g_ntfsprogs/2012.1.15/tmp/package-ntfs-3g_ntfsprogs/usr/man/man8/ntfs-3g.usermap.8'
 /bin/ginstall -c -m 644 './ntfs-3g.secaudit.8' '/home/ken/vectorlinux/packaging/pactions/ntfs-3g_ntfsprogs/ntfs-3g_ntfsprogs/2012.1.15/tmp/package-ntfs-3g_ntfsprogs/usr/man/man8/ntfs-3g.secaudit.8'
ln -s -f ntfs-3g.8 "/home/ken/vectorlinux/packaging/pactions/ntfs-3g_ntfsprogs/ntfs-3g_ntfsprogs/2012.1.15/tmp/package-ntfs-3g_ntfsprogs/usr/man/man8/mount.ntfs-3g.8"
ln -s -f ntfs-3g.8 "/home/ken/vectorlinux/packaging/pactions/ntfs-3g_ntfsprogs/ntfs-3g_ntfsprogs/2012.1.15/tmp/package-ntfs-3g_ntfsprogs/usr/man/man8/mount.lowntfs-3g.8"
test -z "/sbin" || /bin/mkdir -p "/home/ken/vectorlinux/packaging/pactions/ntfs-3g_ntfsprogs/ntfs-3g_ntfsprogs/2012.1.15/tmp/package-ntfs-3g_ntfsprogs/sbin"
make[2]: Leaving directory `/home/ken/vectorlinux/packaging/pactions/ntfs-3g_ntfsprogs/ntfs-3g_ntfsprogs/2012.1.15/tmp/ntfs-3g_ntfsprogs-2012.1.15/src'
make[1]: Leaving directory `/home/ken/vectorlinux/packaging/pactions/ntfs-3g_ntfsprogs/ntfs-3g_ntfsprogs/2012.1.15/tmp/ntfs-3g_ntfsprogs-2012.1.15/src'
make[1]: Entering directory `/home/ken/vectorlinux/packaging/pactions/ntfs-3g_ntfsprogs/ntfs-3g_ntfsprogs/2012.1.15/tmp/ntfs-3g_ntfsprogs-2012.1.15'
make[2]: Entering directory `/home/ken/vectorlinux/packaging/pactions/ntfs-3g_ntfsprogs/ntfs-3g_ntfsprogs/2012.1.15/tmp/ntfs-3g_ntfsprogs-2012.1.15'
make[2]: Nothing to be done for `install-exec-am'.
test -z "/usr/share/doc/ntfs-3g" || /bin/mkdir -p "/home/ken/vectorlinux/packaging/pactions/ntfs-3g_ntfsprogs/ntfs-3g_ntfsprogs/2012.1.15/tmp/package-ntfs-3g_ntfsprogs/usr/share/doc/ntfs-3g"
 /bin/ginstall -c -m 644 'README' '/home/ken/vectorlinux/packaging/pactions/ntfs-3g_ntfsprogs/ntfs-3g_ntfsprogs/2012.1.15/tmp/package-ntfs-3g_ntfsprogs/usr/share/doc/ntfs-3g/README'
make[2]: Leaving directory `/home/ken/vectorlinux/packaging/pactions/ntfs-3g_ntfsprogs/ntfs-3g_ntfsprogs/2012.1.15/tmp/ntfs-3g_ntfsprogs-2012.1.15'
make[1]: Leaving directory `/home/ken/vectorlinux/packaging/pactions/ntfs-3g_ntfsprogs/ntfs-3g_ntfsprogs/2012.1.15/tmp/ntfs-3g_ntfsprogs-2012.1.15'
 
Stripping....
 
Finding dependencies...
The following dependencies have been found:
fuse >= 2.8.5
glibc-solibs >= 2.13
util-linux >= 2.19
Creating package ntfs-3g_ntfsprogs-2012.1.15-i586-1vl70.txz

Searching for symbolic links:
./usr/lib/libntfs-3g.so -> /lib/libntfs-3g.so
./usr/man/man8/mount.ntfs-3g.8 -> ntfs-3g.8
./usr/man/man8/mkfs.ntfs.8 -> mkntfs.8
./usr/man/man8/mount.lowntfs-3g.8 -> ntfs-3g.8
./lib/libntfs-3g.so.83 -> libntfs-3g.so.83.0.0
./lib/libntfs-3g.so -> libntfs-3g.so.83.0.0
./sbin/mkfs.ntfs -> /usr/sbin/mkntfs
./sbin/mount.ntfs -> /bin/ntfs-3g
./sbin/mount.lowntfs-3g -> /bin/lowntfs-3g
./sbin/mount.ntfs-3g -> /bin/ntfs-3g

The symbolic link creation script:
( cd usr/lib ; rm -rf libntfs-3g.so )
( cd usr/lib ; ln -sf /lib/libntfs-3g.so libntfs-3g.so )
( cd usr/man/man8 ; rm -rf mount.ntfs-3g.8 )
( cd usr/man/man8 ; ln -sf ntfs-3g.8 mount.ntfs-3g.8 )
( cd usr/man/man8 ; rm -rf mkfs.ntfs.8 )
( cd usr/man/man8 ; ln -sf mkntfs.8 mkfs.ntfs.8 )
( cd usr/man/man8 ; rm -rf mount.lowntfs-3g.8 )
( cd usr/man/man8 ; ln -sf ntfs-3g.8 mount.lowntfs-3g.8 )
( cd lib ; rm -rf libntfs-3g.so.83 )
( cd lib ; ln -sf libntfs-3g.so.83.0.0 libntfs-3g.so.83 )
( cd lib ; rm -rf libntfs-3g.so )
( cd lib ; ln -sf libntfs-3g.so.83.0.0 libntfs-3g.so )
( cd sbin ; rm -rf mkfs.ntfs )
( cd sbin ; ln -sf /usr/sbin/mkntfs mkfs.ntfs )
( cd sbin ; rm -rf mount.ntfs )
( cd sbin ; ln -sf /bin/ntfs-3g mount.ntfs )
( cd sbin ; rm -rf mount.lowntfs-3g )
( cd sbin ; ln -sf /bin/lowntfs-3g mount.lowntfs-3g )
( cd sbin ; rm -rf mount.ntfs-3g )
( cd sbin ; ln -sf /bin/ntfs-3g mount.ntfs-3g )

It is recommended that you make these lines your new installation script.

Would you like to make this stuff the install script for this package
and remove the symbolic links? [Y/n] y

Creating your new ./install/doinst.sh...

Removing symbolic links:
removed `./usr/lib/libntfs-3g.so'
removed `./usr/man/man8/mount.ntfs-3g.8'
removed `./usr/man/man8/mkfs.ntfs.8'
removed `./usr/man/man8/mount.lowntfs-3g.8'
removed `./lib/libntfs-3g.so.83'
removed `./lib/libntfs-3g.so'
removed `./sbin/mkfs.ntfs'
removed `./sbin/mount.ntfs'
removed `./sbin/mount.lowntfs-3g'
removed `./sbin/mount.ntfs-3g'

This next step is optional - you can set the files and directories in
your package to some sane permissions. If any of the files or dirs in
your package have special permissions, then DO NOT reset them here!

Would you like to reset all directory and file permissions and set
their ownerships to root:root? [y/N] n

Creating the package file...


Package created: /home/ken/vectorlinux/packaging/pactions/ntfs-3g_ntfsprogs/ntfs-3g_ntfsprogs/2012.1.15/ntfs-3g_ntfsprogs-2012.1.15-i586-1vl70.txz

Basename:        ntfs-3g_ntfsprogs
Version number:  2012.1.15
Minimum arch:    i586
Build version:   1vl70
Compression:     txz (XZ LZMA compressed)

Cleaning up temp files...
Package Complete
